M48
; DRILL file {KiCad 5.1.10} date Tue Oct  5 20:19:33 2021
; FORMAT={-:-/ absolute / metric / decimal}
; #@! TF.CreationDate,2021-10-05T20:19:33+02:00
; #@! TF.GenerationSoftware,Kicad,Pcbnew,5.1.10
; #@! TF.FileFunction,Plated,1,2,PTH
FMAT,2
METRIC
T1C1.000
%
G90
G05
T1
X122.0Y-70.0
X122.0Y-77.5
X122.0Y-85.0
X124.0Y-29.0
X124.0Y-32.0
X124.0Y-35.0
X126.0Y-40.0
X126.0Y-43.0
X126.0Y-46.0
X126.0Y-49.0
X126.0Y-52.0
X126.0Y-55.0
X126.0Y-58.0
X126.0Y-61.0
X126.0Y-64.0
X126.0Y-67.0
X126.0Y-70.0
X126.0Y-76.0
X126.0Y-79.0
X126.0Y-82.0
X126.0Y-85.0
X126.0Y-88.0
X126.0Y-91.0
X126.0Y-94.0
X126.0Y-97.0
X126.0Y-100.0
X126.0Y-103.0
X126.0Y-106.0
X128.0Y-29.0
X128.0Y-32.0
X128.0Y-35.0
T0
M30
