%TF.GenerationSoftware,KiCad,Pcbnew,5.1.10*%
%TF.CreationDate,2021-10-05T20:19:26+02:00*%
%TF.ProjectId,brest,62726573-742e-46b6-9963-61645f706362,rev?*%
%TF.SameCoordinates,Original*%
%TF.FileFunction,Soldermask,Bot*%
%TF.FilePolarity,Negative*%
%FSLAX46Y46*%
G04 Gerber Fmt 4.6, Leading zero omitted, Abs format (unit mm)*
G04 Created by KiCad (PCBNEW 5.1.10) date 2021-10-05 20:19:26*
%MOMM*%
%LPD*%
G01*
G04 APERTURE LIST*
%ADD10C,1.520000*%
%ADD11C,3.200000*%
%ADD12C,1.540000*%
G04 APERTURE END LIST*
D10*
%TO.C,REF\u002A\u002A*%
X122000000Y-70000000D03*
X122000000Y-77500000D03*
X122000000Y-85000000D03*
%TD*%
D11*
%TO.C,REF\u002A\u002A*%
X105000000Y-30000000D03*
%TD*%
%TO.C,REF\u002A\u002A*%
X147000000Y-30000000D03*
%TD*%
%TO.C,REF\u002A\u002A*%
X105000000Y-106000000D03*
%TD*%
%TO.C,REF\u002A\u002A*%
X147000000Y-106000000D03*
%TD*%
D12*
%TO.C,REF\u002A\u002A*%
X128000000Y-29000000D03*
X128000000Y-32000000D03*
X128000000Y-35000000D03*
X124000000Y-29000000D03*
X124000000Y-32000000D03*
X124000000Y-35000000D03*
X126000000Y-40000000D03*
X126000000Y-43000000D03*
X126000000Y-46000000D03*
X126000000Y-49000000D03*
X126000000Y-52000000D03*
X126000000Y-55000000D03*
X126000000Y-58000000D03*
X126000000Y-61000000D03*
X126000000Y-64000000D03*
X126000000Y-67000000D03*
X126000000Y-70000000D03*
X126000000Y-76000000D03*
X126000000Y-79000000D03*
X126000000Y-82000000D03*
X126000000Y-85000000D03*
X126000000Y-88000000D03*
X126000000Y-91000000D03*
X126000000Y-94000000D03*
X126000000Y-97000000D03*
X126000000Y-100000000D03*
X126000000Y-103000000D03*
X126000000Y-106000000D03*
%TD*%
M02*
