%TF.GenerationSoftware,KiCad,Pcbnew,5.1.10*%
%TF.CreationDate,2021-10-05T20:30:02+02:00*%
%TF.ProjectId,leds,6c656473-2e6b-4696-9361-645f70636258,rev?*%
%TF.SameCoordinates,Original*%
%TF.FileFunction,Paste,Bot*%
%TF.FilePolarity,Positive*%
%FSLAX46Y46*%
G04 Gerber Fmt 4.6, Leading zero omitted, Abs format (unit mm)*
G04 Created by KiCad (PCBNEW 5.1.10) date 2021-10-05 20:30:02*
%MOMM*%
%LPD*%
G01*
G04 APERTURE LIST*
G04 APERTURE END LIST*
%TO.C,C1*%
G36*
G01*
X109235001Y-99635000D02*
X107934999Y-99635000D01*
G75*
G02*
X107685000Y-99385001I0J249999D01*
G01*
X107685000Y-98734999D01*
G75*
G02*
X107934999Y-98485000I249999J0D01*
G01*
X109235001Y-98485000D01*
G75*
G02*
X109485000Y-98734999I0J-249999D01*
G01*
X109485000Y-99385001D01*
G75*
G02*
X109235001Y-99635000I-249999J0D01*
G01*
G37*
G36*
G01*
X109235001Y-102585000D02*
X107934999Y-102585000D01*
G75*
G02*
X107685000Y-102335001I0J249999D01*
G01*
X107685000Y-101684999D01*
G75*
G02*
X107934999Y-101435000I249999J0D01*
G01*
X109235001Y-101435000D01*
G75*
G02*
X109485000Y-101684999I0J-249999D01*
G01*
X109485000Y-102335001D01*
G75*
G02*
X109235001Y-102585000I-249999J0D01*
G01*
G37*
%TD*%
%TO.C,U5*%
G36*
G01*
X135636000Y-59690000D02*
X134874000Y-59690000D01*
G75*
G02*
X134493000Y-59309000I0J381000D01*
G01*
X134493000Y-57531000D01*
G75*
G02*
X134874000Y-57150000I381000J0D01*
G01*
X135636000Y-57150000D01*
G75*
G02*
X136017000Y-57531000I0J-381000D01*
G01*
X136017000Y-59309000D01*
G75*
G02*
X135636000Y-59690000I-381000J0D01*
G01*
G37*
G36*
G01*
X133096000Y-59690000D02*
X132334000Y-59690000D01*
G75*
G02*
X131953000Y-59309000I0J381000D01*
G01*
X131953000Y-57531000D01*
G75*
G02*
X132334000Y-57150000I381000J0D01*
G01*
X133096000Y-57150000D01*
G75*
G02*
X133477000Y-57531000I0J-381000D01*
G01*
X133477000Y-59309000D01*
G75*
G02*
X133096000Y-59690000I-381000J0D01*
G01*
G37*
G36*
G01*
X130556000Y-59690000D02*
X129794000Y-59690000D01*
G75*
G02*
X129413000Y-59309000I0J381000D01*
G01*
X129413000Y-57531000D01*
G75*
G02*
X129794000Y-57150000I381000J0D01*
G01*
X130556000Y-57150000D01*
G75*
G02*
X130937000Y-57531000I0J-381000D01*
G01*
X130937000Y-59309000D01*
G75*
G02*
X130556000Y-59690000I-381000J0D01*
G01*
G37*
G36*
G01*
X128016000Y-59690000D02*
X127254000Y-59690000D01*
G75*
G02*
X126873000Y-59309000I0J381000D01*
G01*
X126873000Y-57531000D01*
G75*
G02*
X127254000Y-57150000I381000J0D01*
G01*
X128016000Y-57150000D01*
G75*
G02*
X128397000Y-57531000I0J-381000D01*
G01*
X128397000Y-59309000D01*
G75*
G02*
X128016000Y-59690000I-381000J0D01*
G01*
G37*
G36*
G01*
X125476000Y-59690000D02*
X124714000Y-59690000D01*
G75*
G02*
X124333000Y-59309000I0J381000D01*
G01*
X124333000Y-57531000D01*
G75*
G02*
X124714000Y-57150000I381000J0D01*
G01*
X125476000Y-57150000D01*
G75*
G02*
X125857000Y-57531000I0J-381000D01*
G01*
X125857000Y-59309000D01*
G75*
G02*
X125476000Y-59690000I-381000J0D01*
G01*
G37*
G36*
G01*
X122936000Y-59690000D02*
X122174000Y-59690000D01*
G75*
G02*
X121793000Y-59309000I0J381000D01*
G01*
X121793000Y-57531000D01*
G75*
G02*
X122174000Y-57150000I381000J0D01*
G01*
X122936000Y-57150000D01*
G75*
G02*
X123317000Y-57531000I0J-381000D01*
G01*
X123317000Y-59309000D01*
G75*
G02*
X122936000Y-59690000I-381000J0D01*
G01*
G37*
G36*
G01*
X120396000Y-59690000D02*
X119634000Y-59690000D01*
G75*
G02*
X119253000Y-59309000I0J381000D01*
G01*
X119253000Y-57531000D01*
G75*
G02*
X119634000Y-57150000I381000J0D01*
G01*
X120396000Y-57150000D01*
G75*
G02*
X120777000Y-57531000I0J-381000D01*
G01*
X120777000Y-59309000D01*
G75*
G02*
X120396000Y-59690000I-381000J0D01*
G01*
G37*
G36*
G01*
X117856000Y-59690000D02*
X117094000Y-59690000D01*
G75*
G02*
X116713000Y-59309000I0J381000D01*
G01*
X116713000Y-57531000D01*
G75*
G02*
X117094000Y-57150000I381000J0D01*
G01*
X117856000Y-57150000D01*
G75*
G02*
X118237000Y-57531000I0J-381000D01*
G01*
X118237000Y-59309000D01*
G75*
G02*
X117856000Y-59690000I-381000J0D01*
G01*
G37*
G36*
G01*
X115316000Y-59690000D02*
X114554000Y-59690000D01*
G75*
G02*
X114173000Y-59309000I0J381000D01*
G01*
X114173000Y-57531000D01*
G75*
G02*
X114554000Y-57150000I381000J0D01*
G01*
X115316000Y-57150000D01*
G75*
G02*
X115697000Y-57531000I0J-381000D01*
G01*
X115697000Y-59309000D01*
G75*
G02*
X115316000Y-59690000I-381000J0D01*
G01*
G37*
G36*
G01*
X112776000Y-59690000D02*
X112014000Y-59690000D01*
G75*
G02*
X111633000Y-59309000I0J381000D01*
G01*
X111633000Y-57531000D01*
G75*
G02*
X112014000Y-57150000I381000J0D01*
G01*
X112776000Y-57150000D01*
G75*
G02*
X113157000Y-57531000I0J-381000D01*
G01*
X113157000Y-59309000D01*
G75*
G02*
X112776000Y-59690000I-381000J0D01*
G01*
G37*
G36*
G01*
X110236000Y-59690000D02*
X109474000Y-59690000D01*
G75*
G02*
X109093000Y-59309000I0J381000D01*
G01*
X109093000Y-57531000D01*
G75*
G02*
X109474000Y-57150000I381000J0D01*
G01*
X110236000Y-57150000D01*
G75*
G02*
X110617000Y-57531000I0J-381000D01*
G01*
X110617000Y-59309000D01*
G75*
G02*
X110236000Y-59690000I-381000J0D01*
G01*
G37*
G36*
G01*
X110236000Y-82550000D02*
X109474000Y-82550000D01*
G75*
G02*
X109093000Y-82169000I0J381000D01*
G01*
X109093000Y-80391000D01*
G75*
G02*
X109474000Y-80010000I381000J0D01*
G01*
X110236000Y-80010000D01*
G75*
G02*
X110617000Y-80391000I0J-381000D01*
G01*
X110617000Y-82169000D01*
G75*
G02*
X110236000Y-82550000I-381000J0D01*
G01*
G37*
G36*
G01*
X112776000Y-82550000D02*
X112014000Y-82550000D01*
G75*
G02*
X111633000Y-82169000I0J381000D01*
G01*
X111633000Y-80391000D01*
G75*
G02*
X112014000Y-80010000I381000J0D01*
G01*
X112776000Y-80010000D01*
G75*
G02*
X113157000Y-80391000I0J-381000D01*
G01*
X113157000Y-82169000D01*
G75*
G02*
X112776000Y-82550000I-381000J0D01*
G01*
G37*
G36*
G01*
X115316000Y-82550000D02*
X114554000Y-82550000D01*
G75*
G02*
X114173000Y-82169000I0J381000D01*
G01*
X114173000Y-80391000D01*
G75*
G02*
X114554000Y-80010000I381000J0D01*
G01*
X115316000Y-80010000D01*
G75*
G02*
X115697000Y-80391000I0J-381000D01*
G01*
X115697000Y-82169000D01*
G75*
G02*
X115316000Y-82550000I-381000J0D01*
G01*
G37*
G36*
G01*
X117856000Y-82550000D02*
X117094000Y-82550000D01*
G75*
G02*
X116713000Y-82169000I0J381000D01*
G01*
X116713000Y-80391000D01*
G75*
G02*
X117094000Y-80010000I381000J0D01*
G01*
X117856000Y-80010000D01*
G75*
G02*
X118237000Y-80391000I0J-381000D01*
G01*
X118237000Y-82169000D01*
G75*
G02*
X117856000Y-82550000I-381000J0D01*
G01*
G37*
G36*
G01*
X120396000Y-82550000D02*
X119634000Y-82550000D01*
G75*
G02*
X119253000Y-82169000I0J381000D01*
G01*
X119253000Y-80391000D01*
G75*
G02*
X119634000Y-80010000I381000J0D01*
G01*
X120396000Y-80010000D01*
G75*
G02*
X120777000Y-80391000I0J-381000D01*
G01*
X120777000Y-82169000D01*
G75*
G02*
X120396000Y-82550000I-381000J0D01*
G01*
G37*
G36*
G01*
X122936000Y-82550000D02*
X122174000Y-82550000D01*
G75*
G02*
X121793000Y-82169000I0J381000D01*
G01*
X121793000Y-80391000D01*
G75*
G02*
X122174000Y-80010000I381000J0D01*
G01*
X122936000Y-80010000D01*
G75*
G02*
X123317000Y-80391000I0J-381000D01*
G01*
X123317000Y-82169000D01*
G75*
G02*
X122936000Y-82550000I-381000J0D01*
G01*
G37*
G36*
G01*
X125476000Y-82550000D02*
X124714000Y-82550000D01*
G75*
G02*
X124333000Y-82169000I0J381000D01*
G01*
X124333000Y-80391000D01*
G75*
G02*
X124714000Y-80010000I381000J0D01*
G01*
X125476000Y-80010000D01*
G75*
G02*
X125857000Y-80391000I0J-381000D01*
G01*
X125857000Y-82169000D01*
G75*
G02*
X125476000Y-82550000I-381000J0D01*
G01*
G37*
G36*
G01*
X128016000Y-82550000D02*
X127254000Y-82550000D01*
G75*
G02*
X126873000Y-82169000I0J381000D01*
G01*
X126873000Y-80391000D01*
G75*
G02*
X127254000Y-80010000I381000J0D01*
G01*
X128016000Y-80010000D01*
G75*
G02*
X128397000Y-80391000I0J-381000D01*
G01*
X128397000Y-82169000D01*
G75*
G02*
X128016000Y-82550000I-381000J0D01*
G01*
G37*
G36*
G01*
X130556000Y-82550000D02*
X129794000Y-82550000D01*
G75*
G02*
X129413000Y-82169000I0J381000D01*
G01*
X129413000Y-80391000D01*
G75*
G02*
X129794000Y-80010000I381000J0D01*
G01*
X130556000Y-80010000D01*
G75*
G02*
X130937000Y-80391000I0J-381000D01*
G01*
X130937000Y-82169000D01*
G75*
G02*
X130556000Y-82550000I-381000J0D01*
G01*
G37*
G36*
G01*
X133096000Y-82550000D02*
X132334000Y-82550000D01*
G75*
G02*
X131953000Y-82169000I0J381000D01*
G01*
X131953000Y-80391000D01*
G75*
G02*
X132334000Y-80010000I381000J0D01*
G01*
X133096000Y-80010000D01*
G75*
G02*
X133477000Y-80391000I0J-381000D01*
G01*
X133477000Y-82169000D01*
G75*
G02*
X133096000Y-82550000I-381000J0D01*
G01*
G37*
G36*
G01*
X135636000Y-82550000D02*
X134874000Y-82550000D01*
G75*
G02*
X134493000Y-82169000I0J381000D01*
G01*
X134493000Y-80391000D01*
G75*
G02*
X134874000Y-80010000I381000J0D01*
G01*
X135636000Y-80010000D01*
G75*
G02*
X136017000Y-80391000I0J-381000D01*
G01*
X136017000Y-82169000D01*
G75*
G02*
X135636000Y-82550000I-381000J0D01*
G01*
G37*
%TD*%
M02*
