%TF.GenerationSoftware,KiCad,Pcbnew,5.1.10*%
%TF.CreationDate,2021-10-05T20:30:02+02:00*%
%TF.ProjectId,leds,6c656473-2e6b-4696-9361-645f70636258,rev?*%
%TF.SameCoordinates,Original*%
%TF.FileFunction,Paste,Top*%
%TF.FilePolarity,Positive*%
%FSLAX46Y46*%
G04 Gerber Fmt 4.6, Leading zero omitted, Abs format (unit mm)*
G04 Created by KiCad (PCBNEW 5.1.10) date 2021-10-05 20:30:02*
%MOMM*%
%LPD*%
G01*
G04 APERTURE LIST*
G04 APERTURE END LIST*
%TO.C,D17*%
G36*
G01*
X126775000Y-70625000D02*
X126775000Y-69375000D01*
G75*
G02*
X127025000Y-69125000I250000J0D01*
G01*
X127775000Y-69125000D01*
G75*
G02*
X128025000Y-69375000I0J-250000D01*
G01*
X128025000Y-70625000D01*
G75*
G02*
X127775000Y-70875000I-250000J0D01*
G01*
X127025000Y-70875000D01*
G75*
G02*
X126775000Y-70625000I0J250000D01*
G01*
G37*
G36*
G01*
X123975000Y-70625000D02*
X123975000Y-69375000D01*
G75*
G02*
X124225000Y-69125000I250000J0D01*
G01*
X124975000Y-69125000D01*
G75*
G02*
X125225000Y-69375000I0J-250000D01*
G01*
X125225000Y-70625000D01*
G75*
G02*
X124975000Y-70875000I-250000J0D01*
G01*
X124225000Y-70875000D01*
G75*
G02*
X123975000Y-70625000I0J250000D01*
G01*
G37*
%TD*%
%TO.C,R17*%
G36*
G01*
X130100000Y-69374998D02*
X130100000Y-70625002D01*
G75*
G02*
X129850002Y-70875000I-249998J0D01*
G01*
X129224998Y-70875000D01*
G75*
G02*
X128975000Y-70625002I0J249998D01*
G01*
X128975000Y-69374998D01*
G75*
G02*
X129224998Y-69125000I249998J0D01*
G01*
X129850002Y-69125000D01*
G75*
G02*
X130100000Y-69374998I0J-249998D01*
G01*
G37*
G36*
G01*
X133025000Y-69374998D02*
X133025000Y-70625002D01*
G75*
G02*
X132775002Y-70875000I-249998J0D01*
G01*
X132149998Y-70875000D01*
G75*
G02*
X131900000Y-70625002I0J249998D01*
G01*
X131900000Y-69374998D01*
G75*
G02*
X132149998Y-69125000I249998J0D01*
G01*
X132775002Y-69125000D01*
G75*
G02*
X133025000Y-69374998I0J-249998D01*
G01*
G37*
%TD*%
%TO.C,D7*%
G36*
G01*
X126775000Y-40625000D02*
X126775000Y-39375000D01*
G75*
G02*
X127025000Y-39125000I250000J0D01*
G01*
X127775000Y-39125000D01*
G75*
G02*
X128025000Y-39375000I0J-250000D01*
G01*
X128025000Y-40625000D01*
G75*
G02*
X127775000Y-40875000I-250000J0D01*
G01*
X127025000Y-40875000D01*
G75*
G02*
X126775000Y-40625000I0J250000D01*
G01*
G37*
G36*
G01*
X123975000Y-40625000D02*
X123975000Y-39375000D01*
G75*
G02*
X124225000Y-39125000I250000J0D01*
G01*
X124975000Y-39125000D01*
G75*
G02*
X125225000Y-39375000I0J-250000D01*
G01*
X125225000Y-40625000D01*
G75*
G02*
X124975000Y-40875000I-250000J0D01*
G01*
X124225000Y-40875000D01*
G75*
G02*
X123975000Y-40625000I0J250000D01*
G01*
G37*
%TD*%
%TO.C,D8*%
G36*
G01*
X126775000Y-43625000D02*
X126775000Y-42375000D01*
G75*
G02*
X127025000Y-42125000I250000J0D01*
G01*
X127775000Y-42125000D01*
G75*
G02*
X128025000Y-42375000I0J-250000D01*
G01*
X128025000Y-43625000D01*
G75*
G02*
X127775000Y-43875000I-250000J0D01*
G01*
X127025000Y-43875000D01*
G75*
G02*
X126775000Y-43625000I0J250000D01*
G01*
G37*
G36*
G01*
X123975000Y-43625000D02*
X123975000Y-42375000D01*
G75*
G02*
X124225000Y-42125000I250000J0D01*
G01*
X124975000Y-42125000D01*
G75*
G02*
X125225000Y-42375000I0J-250000D01*
G01*
X125225000Y-43625000D01*
G75*
G02*
X124975000Y-43875000I-250000J0D01*
G01*
X124225000Y-43875000D01*
G75*
G02*
X123975000Y-43625000I0J250000D01*
G01*
G37*
%TD*%
%TO.C,D9*%
G36*
G01*
X126775000Y-46625000D02*
X126775000Y-45375000D01*
G75*
G02*
X127025000Y-45125000I250000J0D01*
G01*
X127775000Y-45125000D01*
G75*
G02*
X128025000Y-45375000I0J-250000D01*
G01*
X128025000Y-46625000D01*
G75*
G02*
X127775000Y-46875000I-250000J0D01*
G01*
X127025000Y-46875000D01*
G75*
G02*
X126775000Y-46625000I0J250000D01*
G01*
G37*
G36*
G01*
X123975000Y-46625000D02*
X123975000Y-45375000D01*
G75*
G02*
X124225000Y-45125000I250000J0D01*
G01*
X124975000Y-45125000D01*
G75*
G02*
X125225000Y-45375000I0J-250000D01*
G01*
X125225000Y-46625000D01*
G75*
G02*
X124975000Y-46875000I-250000J0D01*
G01*
X124225000Y-46875000D01*
G75*
G02*
X123975000Y-46625000I0J250000D01*
G01*
G37*
%TD*%
%TO.C,D10*%
G36*
G01*
X126775000Y-49625000D02*
X126775000Y-48375000D01*
G75*
G02*
X127025000Y-48125000I250000J0D01*
G01*
X127775000Y-48125000D01*
G75*
G02*
X128025000Y-48375000I0J-250000D01*
G01*
X128025000Y-49625000D01*
G75*
G02*
X127775000Y-49875000I-250000J0D01*
G01*
X127025000Y-49875000D01*
G75*
G02*
X126775000Y-49625000I0J250000D01*
G01*
G37*
G36*
G01*
X123975000Y-49625000D02*
X123975000Y-48375000D01*
G75*
G02*
X124225000Y-48125000I250000J0D01*
G01*
X124975000Y-48125000D01*
G75*
G02*
X125225000Y-48375000I0J-250000D01*
G01*
X125225000Y-49625000D01*
G75*
G02*
X124975000Y-49875000I-250000J0D01*
G01*
X124225000Y-49875000D01*
G75*
G02*
X123975000Y-49625000I0J250000D01*
G01*
G37*
%TD*%
%TO.C,D11*%
G36*
G01*
X126775000Y-52625000D02*
X126775000Y-51375000D01*
G75*
G02*
X127025000Y-51125000I250000J0D01*
G01*
X127775000Y-51125000D01*
G75*
G02*
X128025000Y-51375000I0J-250000D01*
G01*
X128025000Y-52625000D01*
G75*
G02*
X127775000Y-52875000I-250000J0D01*
G01*
X127025000Y-52875000D01*
G75*
G02*
X126775000Y-52625000I0J250000D01*
G01*
G37*
G36*
G01*
X123975000Y-52625000D02*
X123975000Y-51375000D01*
G75*
G02*
X124225000Y-51125000I250000J0D01*
G01*
X124975000Y-51125000D01*
G75*
G02*
X125225000Y-51375000I0J-250000D01*
G01*
X125225000Y-52625000D01*
G75*
G02*
X124975000Y-52875000I-250000J0D01*
G01*
X124225000Y-52875000D01*
G75*
G02*
X123975000Y-52625000I0J250000D01*
G01*
G37*
%TD*%
%TO.C,D12*%
G36*
G01*
X126775000Y-55625000D02*
X126775000Y-54375000D01*
G75*
G02*
X127025000Y-54125000I250000J0D01*
G01*
X127775000Y-54125000D01*
G75*
G02*
X128025000Y-54375000I0J-250000D01*
G01*
X128025000Y-55625000D01*
G75*
G02*
X127775000Y-55875000I-250000J0D01*
G01*
X127025000Y-55875000D01*
G75*
G02*
X126775000Y-55625000I0J250000D01*
G01*
G37*
G36*
G01*
X123975000Y-55625000D02*
X123975000Y-54375000D01*
G75*
G02*
X124225000Y-54125000I250000J0D01*
G01*
X124975000Y-54125000D01*
G75*
G02*
X125225000Y-54375000I0J-250000D01*
G01*
X125225000Y-55625000D01*
G75*
G02*
X124975000Y-55875000I-250000J0D01*
G01*
X124225000Y-55875000D01*
G75*
G02*
X123975000Y-55625000I0J250000D01*
G01*
G37*
%TD*%
%TO.C,D13*%
G36*
G01*
X126775000Y-58625000D02*
X126775000Y-57375000D01*
G75*
G02*
X127025000Y-57125000I250000J0D01*
G01*
X127775000Y-57125000D01*
G75*
G02*
X128025000Y-57375000I0J-250000D01*
G01*
X128025000Y-58625000D01*
G75*
G02*
X127775000Y-58875000I-250000J0D01*
G01*
X127025000Y-58875000D01*
G75*
G02*
X126775000Y-58625000I0J250000D01*
G01*
G37*
G36*
G01*
X123975000Y-58625000D02*
X123975000Y-57375000D01*
G75*
G02*
X124225000Y-57125000I250000J0D01*
G01*
X124975000Y-57125000D01*
G75*
G02*
X125225000Y-57375000I0J-250000D01*
G01*
X125225000Y-58625000D01*
G75*
G02*
X124975000Y-58875000I-250000J0D01*
G01*
X124225000Y-58875000D01*
G75*
G02*
X123975000Y-58625000I0J250000D01*
G01*
G37*
%TD*%
%TO.C,D14*%
G36*
G01*
X126775000Y-61625000D02*
X126775000Y-60375000D01*
G75*
G02*
X127025000Y-60125000I250000J0D01*
G01*
X127775000Y-60125000D01*
G75*
G02*
X128025000Y-60375000I0J-250000D01*
G01*
X128025000Y-61625000D01*
G75*
G02*
X127775000Y-61875000I-250000J0D01*
G01*
X127025000Y-61875000D01*
G75*
G02*
X126775000Y-61625000I0J250000D01*
G01*
G37*
G36*
G01*
X123975000Y-61625000D02*
X123975000Y-60375000D01*
G75*
G02*
X124225000Y-60125000I250000J0D01*
G01*
X124975000Y-60125000D01*
G75*
G02*
X125225000Y-60375000I0J-250000D01*
G01*
X125225000Y-61625000D01*
G75*
G02*
X124975000Y-61875000I-250000J0D01*
G01*
X124225000Y-61875000D01*
G75*
G02*
X123975000Y-61625000I0J250000D01*
G01*
G37*
%TD*%
%TO.C,D15*%
G36*
G01*
X126775000Y-64625000D02*
X126775000Y-63375000D01*
G75*
G02*
X127025000Y-63125000I250000J0D01*
G01*
X127775000Y-63125000D01*
G75*
G02*
X128025000Y-63375000I0J-250000D01*
G01*
X128025000Y-64625000D01*
G75*
G02*
X127775000Y-64875000I-250000J0D01*
G01*
X127025000Y-64875000D01*
G75*
G02*
X126775000Y-64625000I0J250000D01*
G01*
G37*
G36*
G01*
X123975000Y-64625000D02*
X123975000Y-63375000D01*
G75*
G02*
X124225000Y-63125000I250000J0D01*
G01*
X124975000Y-63125000D01*
G75*
G02*
X125225000Y-63375000I0J-250000D01*
G01*
X125225000Y-64625000D01*
G75*
G02*
X124975000Y-64875000I-250000J0D01*
G01*
X124225000Y-64875000D01*
G75*
G02*
X123975000Y-64625000I0J250000D01*
G01*
G37*
%TD*%
%TO.C,D16*%
G36*
G01*
X126775000Y-67625000D02*
X126775000Y-66375000D01*
G75*
G02*
X127025000Y-66125000I250000J0D01*
G01*
X127775000Y-66125000D01*
G75*
G02*
X128025000Y-66375000I0J-250000D01*
G01*
X128025000Y-67625000D01*
G75*
G02*
X127775000Y-67875000I-250000J0D01*
G01*
X127025000Y-67875000D01*
G75*
G02*
X126775000Y-67625000I0J250000D01*
G01*
G37*
G36*
G01*
X123975000Y-67625000D02*
X123975000Y-66375000D01*
G75*
G02*
X124225000Y-66125000I250000J0D01*
G01*
X124975000Y-66125000D01*
G75*
G02*
X125225000Y-66375000I0J-250000D01*
G01*
X125225000Y-67625000D01*
G75*
G02*
X124975000Y-67875000I-250000J0D01*
G01*
X124225000Y-67875000D01*
G75*
G02*
X123975000Y-67625000I0J250000D01*
G01*
G37*
%TD*%
%TO.C,D18*%
G36*
G01*
X126775000Y-76625000D02*
X126775000Y-75375000D01*
G75*
G02*
X127025000Y-75125000I250000J0D01*
G01*
X127775000Y-75125000D01*
G75*
G02*
X128025000Y-75375000I0J-250000D01*
G01*
X128025000Y-76625000D01*
G75*
G02*
X127775000Y-76875000I-250000J0D01*
G01*
X127025000Y-76875000D01*
G75*
G02*
X126775000Y-76625000I0J250000D01*
G01*
G37*
G36*
G01*
X123975000Y-76625000D02*
X123975000Y-75375000D01*
G75*
G02*
X124225000Y-75125000I250000J0D01*
G01*
X124975000Y-75125000D01*
G75*
G02*
X125225000Y-75375000I0J-250000D01*
G01*
X125225000Y-76625000D01*
G75*
G02*
X124975000Y-76875000I-250000J0D01*
G01*
X124225000Y-76875000D01*
G75*
G02*
X123975000Y-76625000I0J250000D01*
G01*
G37*
%TD*%
%TO.C,D19*%
G36*
G01*
X126775000Y-79625000D02*
X126775000Y-78375000D01*
G75*
G02*
X127025000Y-78125000I250000J0D01*
G01*
X127775000Y-78125000D01*
G75*
G02*
X128025000Y-78375000I0J-250000D01*
G01*
X128025000Y-79625000D01*
G75*
G02*
X127775000Y-79875000I-250000J0D01*
G01*
X127025000Y-79875000D01*
G75*
G02*
X126775000Y-79625000I0J250000D01*
G01*
G37*
G36*
G01*
X123975000Y-79625000D02*
X123975000Y-78375000D01*
G75*
G02*
X124225000Y-78125000I250000J0D01*
G01*
X124975000Y-78125000D01*
G75*
G02*
X125225000Y-78375000I0J-250000D01*
G01*
X125225000Y-79625000D01*
G75*
G02*
X124975000Y-79875000I-250000J0D01*
G01*
X124225000Y-79875000D01*
G75*
G02*
X123975000Y-79625000I0J250000D01*
G01*
G37*
%TD*%
%TO.C,D20*%
G36*
G01*
X126775000Y-82625000D02*
X126775000Y-81375000D01*
G75*
G02*
X127025000Y-81125000I250000J0D01*
G01*
X127775000Y-81125000D01*
G75*
G02*
X128025000Y-81375000I0J-250000D01*
G01*
X128025000Y-82625000D01*
G75*
G02*
X127775000Y-82875000I-250000J0D01*
G01*
X127025000Y-82875000D01*
G75*
G02*
X126775000Y-82625000I0J250000D01*
G01*
G37*
G36*
G01*
X123975000Y-82625000D02*
X123975000Y-81375000D01*
G75*
G02*
X124225000Y-81125000I250000J0D01*
G01*
X124975000Y-81125000D01*
G75*
G02*
X125225000Y-81375000I0J-250000D01*
G01*
X125225000Y-82625000D01*
G75*
G02*
X124975000Y-82875000I-250000J0D01*
G01*
X124225000Y-82875000D01*
G75*
G02*
X123975000Y-82625000I0J250000D01*
G01*
G37*
%TD*%
%TO.C,D21*%
G36*
G01*
X126775000Y-85625000D02*
X126775000Y-84375000D01*
G75*
G02*
X127025000Y-84125000I250000J0D01*
G01*
X127775000Y-84125000D01*
G75*
G02*
X128025000Y-84375000I0J-250000D01*
G01*
X128025000Y-85625000D01*
G75*
G02*
X127775000Y-85875000I-250000J0D01*
G01*
X127025000Y-85875000D01*
G75*
G02*
X126775000Y-85625000I0J250000D01*
G01*
G37*
G36*
G01*
X123975000Y-85625000D02*
X123975000Y-84375000D01*
G75*
G02*
X124225000Y-84125000I250000J0D01*
G01*
X124975000Y-84125000D01*
G75*
G02*
X125225000Y-84375000I0J-250000D01*
G01*
X125225000Y-85625000D01*
G75*
G02*
X124975000Y-85875000I-250000J0D01*
G01*
X124225000Y-85875000D01*
G75*
G02*
X123975000Y-85625000I0J250000D01*
G01*
G37*
%TD*%
%TO.C,D22*%
G36*
G01*
X126775000Y-88625000D02*
X126775000Y-87375000D01*
G75*
G02*
X127025000Y-87125000I250000J0D01*
G01*
X127775000Y-87125000D01*
G75*
G02*
X128025000Y-87375000I0J-250000D01*
G01*
X128025000Y-88625000D01*
G75*
G02*
X127775000Y-88875000I-250000J0D01*
G01*
X127025000Y-88875000D01*
G75*
G02*
X126775000Y-88625000I0J250000D01*
G01*
G37*
G36*
G01*
X123975000Y-88625000D02*
X123975000Y-87375000D01*
G75*
G02*
X124225000Y-87125000I250000J0D01*
G01*
X124975000Y-87125000D01*
G75*
G02*
X125225000Y-87375000I0J-250000D01*
G01*
X125225000Y-88625000D01*
G75*
G02*
X124975000Y-88875000I-250000J0D01*
G01*
X124225000Y-88875000D01*
G75*
G02*
X123975000Y-88625000I0J250000D01*
G01*
G37*
%TD*%
%TO.C,D23*%
G36*
G01*
X126775000Y-91625000D02*
X126775000Y-90375000D01*
G75*
G02*
X127025000Y-90125000I250000J0D01*
G01*
X127775000Y-90125000D01*
G75*
G02*
X128025000Y-90375000I0J-250000D01*
G01*
X128025000Y-91625000D01*
G75*
G02*
X127775000Y-91875000I-250000J0D01*
G01*
X127025000Y-91875000D01*
G75*
G02*
X126775000Y-91625000I0J250000D01*
G01*
G37*
G36*
G01*
X123975000Y-91625000D02*
X123975000Y-90375000D01*
G75*
G02*
X124225000Y-90125000I250000J0D01*
G01*
X124975000Y-90125000D01*
G75*
G02*
X125225000Y-90375000I0J-250000D01*
G01*
X125225000Y-91625000D01*
G75*
G02*
X124975000Y-91875000I-250000J0D01*
G01*
X124225000Y-91875000D01*
G75*
G02*
X123975000Y-91625000I0J250000D01*
G01*
G37*
%TD*%
%TO.C,D24*%
G36*
G01*
X126775000Y-94625000D02*
X126775000Y-93375000D01*
G75*
G02*
X127025000Y-93125000I250000J0D01*
G01*
X127775000Y-93125000D01*
G75*
G02*
X128025000Y-93375000I0J-250000D01*
G01*
X128025000Y-94625000D01*
G75*
G02*
X127775000Y-94875000I-250000J0D01*
G01*
X127025000Y-94875000D01*
G75*
G02*
X126775000Y-94625000I0J250000D01*
G01*
G37*
G36*
G01*
X123975000Y-94625000D02*
X123975000Y-93375000D01*
G75*
G02*
X124225000Y-93125000I250000J0D01*
G01*
X124975000Y-93125000D01*
G75*
G02*
X125225000Y-93375000I0J-250000D01*
G01*
X125225000Y-94625000D01*
G75*
G02*
X124975000Y-94875000I-250000J0D01*
G01*
X124225000Y-94875000D01*
G75*
G02*
X123975000Y-94625000I0J250000D01*
G01*
G37*
%TD*%
%TO.C,D25*%
G36*
G01*
X126775000Y-97625000D02*
X126775000Y-96375000D01*
G75*
G02*
X127025000Y-96125000I250000J0D01*
G01*
X127775000Y-96125000D01*
G75*
G02*
X128025000Y-96375000I0J-250000D01*
G01*
X128025000Y-97625000D01*
G75*
G02*
X127775000Y-97875000I-250000J0D01*
G01*
X127025000Y-97875000D01*
G75*
G02*
X126775000Y-97625000I0J250000D01*
G01*
G37*
G36*
G01*
X123975000Y-97625000D02*
X123975000Y-96375000D01*
G75*
G02*
X124225000Y-96125000I250000J0D01*
G01*
X124975000Y-96125000D01*
G75*
G02*
X125225000Y-96375000I0J-250000D01*
G01*
X125225000Y-97625000D01*
G75*
G02*
X124975000Y-97875000I-250000J0D01*
G01*
X124225000Y-97875000D01*
G75*
G02*
X123975000Y-97625000I0J250000D01*
G01*
G37*
%TD*%
%TO.C,D26*%
G36*
G01*
X126775000Y-100625000D02*
X126775000Y-99375000D01*
G75*
G02*
X127025000Y-99125000I250000J0D01*
G01*
X127775000Y-99125000D01*
G75*
G02*
X128025000Y-99375000I0J-250000D01*
G01*
X128025000Y-100625000D01*
G75*
G02*
X127775000Y-100875000I-250000J0D01*
G01*
X127025000Y-100875000D01*
G75*
G02*
X126775000Y-100625000I0J250000D01*
G01*
G37*
G36*
G01*
X123975000Y-100625000D02*
X123975000Y-99375000D01*
G75*
G02*
X124225000Y-99125000I250000J0D01*
G01*
X124975000Y-99125000D01*
G75*
G02*
X125225000Y-99375000I0J-250000D01*
G01*
X125225000Y-100625000D01*
G75*
G02*
X124975000Y-100875000I-250000J0D01*
G01*
X124225000Y-100875000D01*
G75*
G02*
X123975000Y-100625000I0J250000D01*
G01*
G37*
%TD*%
%TO.C,D27*%
G36*
G01*
X126775000Y-103625000D02*
X126775000Y-102375000D01*
G75*
G02*
X127025000Y-102125000I250000J0D01*
G01*
X127775000Y-102125000D01*
G75*
G02*
X128025000Y-102375000I0J-250000D01*
G01*
X128025000Y-103625000D01*
G75*
G02*
X127775000Y-103875000I-250000J0D01*
G01*
X127025000Y-103875000D01*
G75*
G02*
X126775000Y-103625000I0J250000D01*
G01*
G37*
G36*
G01*
X123975000Y-103625000D02*
X123975000Y-102375000D01*
G75*
G02*
X124225000Y-102125000I250000J0D01*
G01*
X124975000Y-102125000D01*
G75*
G02*
X125225000Y-102375000I0J-250000D01*
G01*
X125225000Y-103625000D01*
G75*
G02*
X124975000Y-103875000I-250000J0D01*
G01*
X124225000Y-103875000D01*
G75*
G02*
X123975000Y-103625000I0J250000D01*
G01*
G37*
%TD*%
%TO.C,D28*%
G36*
G01*
X126775000Y-106625000D02*
X126775000Y-105375000D01*
G75*
G02*
X127025000Y-105125000I250000J0D01*
G01*
X127775000Y-105125000D01*
G75*
G02*
X128025000Y-105375000I0J-250000D01*
G01*
X128025000Y-106625000D01*
G75*
G02*
X127775000Y-106875000I-250000J0D01*
G01*
X127025000Y-106875000D01*
G75*
G02*
X126775000Y-106625000I0J250000D01*
G01*
G37*
G36*
G01*
X123975000Y-106625000D02*
X123975000Y-105375000D01*
G75*
G02*
X124225000Y-105125000I250000J0D01*
G01*
X124975000Y-105125000D01*
G75*
G02*
X125225000Y-105375000I0J-250000D01*
G01*
X125225000Y-106625000D01*
G75*
G02*
X124975000Y-106875000I-250000J0D01*
G01*
X124225000Y-106875000D01*
G75*
G02*
X123975000Y-106625000I0J250000D01*
G01*
G37*
%TD*%
%TO.C,D29*%
G36*
G01*
X122625000Y-69225000D02*
X121375000Y-69225000D01*
G75*
G02*
X121125000Y-68975000I0J250000D01*
G01*
X121125000Y-68225000D01*
G75*
G02*
X121375000Y-67975000I250000J0D01*
G01*
X122625000Y-67975000D01*
G75*
G02*
X122875000Y-68225000I0J-250000D01*
G01*
X122875000Y-68975000D01*
G75*
G02*
X122625000Y-69225000I-250000J0D01*
G01*
G37*
G36*
G01*
X122625000Y-72025000D02*
X121375000Y-72025000D01*
G75*
G02*
X121125000Y-71775000I0J250000D01*
G01*
X121125000Y-71025000D01*
G75*
G02*
X121375000Y-70775000I250000J0D01*
G01*
X122625000Y-70775000D01*
G75*
G02*
X122875000Y-71025000I0J-250000D01*
G01*
X122875000Y-71775000D01*
G75*
G02*
X122625000Y-72025000I-250000J0D01*
G01*
G37*
%TD*%
%TO.C,D30*%
G36*
G01*
X122625000Y-76725000D02*
X121375000Y-76725000D01*
G75*
G02*
X121125000Y-76475000I0J250000D01*
G01*
X121125000Y-75725000D01*
G75*
G02*
X121375000Y-75475000I250000J0D01*
G01*
X122625000Y-75475000D01*
G75*
G02*
X122875000Y-75725000I0J-250000D01*
G01*
X122875000Y-76475000D01*
G75*
G02*
X122625000Y-76725000I-250000J0D01*
G01*
G37*
G36*
G01*
X122625000Y-79525000D02*
X121375000Y-79525000D01*
G75*
G02*
X121125000Y-79275000I0J250000D01*
G01*
X121125000Y-78525000D01*
G75*
G02*
X121375000Y-78275000I250000J0D01*
G01*
X122625000Y-78275000D01*
G75*
G02*
X122875000Y-78525000I0J-250000D01*
G01*
X122875000Y-79275000D01*
G75*
G02*
X122625000Y-79525000I-250000J0D01*
G01*
G37*
%TD*%
%TO.C,D31*%
G36*
G01*
X122625000Y-84225000D02*
X121375000Y-84225000D01*
G75*
G02*
X121125000Y-83975000I0J250000D01*
G01*
X121125000Y-83225000D01*
G75*
G02*
X121375000Y-82975000I250000J0D01*
G01*
X122625000Y-82975000D01*
G75*
G02*
X122875000Y-83225000I0J-250000D01*
G01*
X122875000Y-83975000D01*
G75*
G02*
X122625000Y-84225000I-250000J0D01*
G01*
G37*
G36*
G01*
X122625000Y-87025000D02*
X121375000Y-87025000D01*
G75*
G02*
X121125000Y-86775000I0J250000D01*
G01*
X121125000Y-86025000D01*
G75*
G02*
X121375000Y-85775000I250000J0D01*
G01*
X122625000Y-85775000D01*
G75*
G02*
X122875000Y-86025000I0J-250000D01*
G01*
X122875000Y-86775000D01*
G75*
G02*
X122625000Y-87025000I-250000J0D01*
G01*
G37*
%TD*%
%TO.C,R1*%
G36*
G01*
X119900000Y-29625002D02*
X119900000Y-28374998D01*
G75*
G02*
X120149998Y-28125000I249998J0D01*
G01*
X120775002Y-28125000D01*
G75*
G02*
X121025000Y-28374998I0J-249998D01*
G01*
X121025000Y-29625002D01*
G75*
G02*
X120775002Y-29875000I-249998J0D01*
G01*
X120149998Y-29875000D01*
G75*
G02*
X119900000Y-29625002I0J249998D01*
G01*
G37*
G36*
G01*
X116975000Y-29625002D02*
X116975000Y-28374998D01*
G75*
G02*
X117224998Y-28125000I249998J0D01*
G01*
X117850002Y-28125000D01*
G75*
G02*
X118100000Y-28374998I0J-249998D01*
G01*
X118100000Y-29625002D01*
G75*
G02*
X117850002Y-29875000I-249998J0D01*
G01*
X117224998Y-29875000D01*
G75*
G02*
X116975000Y-29625002I0J249998D01*
G01*
G37*
%TD*%
%TO.C,R2*%
G36*
G01*
X119900000Y-32625002D02*
X119900000Y-31374998D01*
G75*
G02*
X120149998Y-31125000I249998J0D01*
G01*
X120775002Y-31125000D01*
G75*
G02*
X121025000Y-31374998I0J-249998D01*
G01*
X121025000Y-32625002D01*
G75*
G02*
X120775002Y-32875000I-249998J0D01*
G01*
X120149998Y-32875000D01*
G75*
G02*
X119900000Y-32625002I0J249998D01*
G01*
G37*
G36*
G01*
X116975000Y-32625002D02*
X116975000Y-31374998D01*
G75*
G02*
X117224998Y-31125000I249998J0D01*
G01*
X117850002Y-31125000D01*
G75*
G02*
X118100000Y-31374998I0J-249998D01*
G01*
X118100000Y-32625002D01*
G75*
G02*
X117850002Y-32875000I-249998J0D01*
G01*
X117224998Y-32875000D01*
G75*
G02*
X116975000Y-32625002I0J249998D01*
G01*
G37*
%TD*%
%TO.C,R3*%
G36*
G01*
X119900000Y-35625002D02*
X119900000Y-34374998D01*
G75*
G02*
X120149998Y-34125000I249998J0D01*
G01*
X120775002Y-34125000D01*
G75*
G02*
X121025000Y-34374998I0J-249998D01*
G01*
X121025000Y-35625002D01*
G75*
G02*
X120775002Y-35875000I-249998J0D01*
G01*
X120149998Y-35875000D01*
G75*
G02*
X119900000Y-35625002I0J249998D01*
G01*
G37*
G36*
G01*
X116975000Y-35625002D02*
X116975000Y-34374998D01*
G75*
G02*
X117224998Y-34125000I249998J0D01*
G01*
X117850002Y-34125000D01*
G75*
G02*
X118100000Y-34374998I0J-249998D01*
G01*
X118100000Y-35625002D01*
G75*
G02*
X117850002Y-35875000I-249998J0D01*
G01*
X117224998Y-35875000D01*
G75*
G02*
X116975000Y-35625002I0J249998D01*
G01*
G37*
%TD*%
%TO.C,R4*%
G36*
G01*
X132100000Y-28374998D02*
X132100000Y-29625002D01*
G75*
G02*
X131850002Y-29875000I-249998J0D01*
G01*
X131224998Y-29875000D01*
G75*
G02*
X130975000Y-29625002I0J249998D01*
G01*
X130975000Y-28374998D01*
G75*
G02*
X131224998Y-28125000I249998J0D01*
G01*
X131850002Y-28125000D01*
G75*
G02*
X132100000Y-28374998I0J-249998D01*
G01*
G37*
G36*
G01*
X135025000Y-28374998D02*
X135025000Y-29625002D01*
G75*
G02*
X134775002Y-29875000I-249998J0D01*
G01*
X134149998Y-29875000D01*
G75*
G02*
X133900000Y-29625002I0J249998D01*
G01*
X133900000Y-28374998D01*
G75*
G02*
X134149998Y-28125000I249998J0D01*
G01*
X134775002Y-28125000D01*
G75*
G02*
X135025000Y-28374998I0J-249998D01*
G01*
G37*
%TD*%
%TO.C,R5*%
G36*
G01*
X132100000Y-31374998D02*
X132100000Y-32625002D01*
G75*
G02*
X131850002Y-32875000I-249998J0D01*
G01*
X131224998Y-32875000D01*
G75*
G02*
X130975000Y-32625002I0J249998D01*
G01*
X130975000Y-31374998D01*
G75*
G02*
X131224998Y-31125000I249998J0D01*
G01*
X131850002Y-31125000D01*
G75*
G02*
X132100000Y-31374998I0J-249998D01*
G01*
G37*
G36*
G01*
X135025000Y-31374998D02*
X135025000Y-32625002D01*
G75*
G02*
X134775002Y-32875000I-249998J0D01*
G01*
X134149998Y-32875000D01*
G75*
G02*
X133900000Y-32625002I0J249998D01*
G01*
X133900000Y-31374998D01*
G75*
G02*
X134149998Y-31125000I249998J0D01*
G01*
X134775002Y-31125000D01*
G75*
G02*
X135025000Y-31374998I0J-249998D01*
G01*
G37*
%TD*%
%TO.C,R6*%
G36*
G01*
X132100000Y-34374998D02*
X132100000Y-35625002D01*
G75*
G02*
X131850002Y-35875000I-249998J0D01*
G01*
X131224998Y-35875000D01*
G75*
G02*
X130975000Y-35625002I0J249998D01*
G01*
X130975000Y-34374998D01*
G75*
G02*
X131224998Y-34125000I249998J0D01*
G01*
X131850002Y-34125000D01*
G75*
G02*
X132100000Y-34374998I0J-249998D01*
G01*
G37*
G36*
G01*
X135025000Y-34374998D02*
X135025000Y-35625002D01*
G75*
G02*
X134775002Y-35875000I-249998J0D01*
G01*
X134149998Y-35875000D01*
G75*
G02*
X133900000Y-35625002I0J249998D01*
G01*
X133900000Y-34374998D01*
G75*
G02*
X134149998Y-34125000I249998J0D01*
G01*
X134775002Y-34125000D01*
G75*
G02*
X135025000Y-34374998I0J-249998D01*
G01*
G37*
%TD*%
%TO.C,R7*%
G36*
G01*
X130100000Y-39374998D02*
X130100000Y-40625002D01*
G75*
G02*
X129850002Y-40875000I-249998J0D01*
G01*
X129224998Y-40875000D01*
G75*
G02*
X128975000Y-40625002I0J249998D01*
G01*
X128975000Y-39374998D01*
G75*
G02*
X129224998Y-39125000I249998J0D01*
G01*
X129850002Y-39125000D01*
G75*
G02*
X130100000Y-39374998I0J-249998D01*
G01*
G37*
G36*
G01*
X133025000Y-39374998D02*
X133025000Y-40625002D01*
G75*
G02*
X132775002Y-40875000I-249998J0D01*
G01*
X132149998Y-40875000D01*
G75*
G02*
X131900000Y-40625002I0J249998D01*
G01*
X131900000Y-39374998D01*
G75*
G02*
X132149998Y-39125000I249998J0D01*
G01*
X132775002Y-39125000D01*
G75*
G02*
X133025000Y-39374998I0J-249998D01*
G01*
G37*
%TD*%
%TO.C,R8*%
G36*
G01*
X130100000Y-42374998D02*
X130100000Y-43625002D01*
G75*
G02*
X129850002Y-43875000I-249998J0D01*
G01*
X129224998Y-43875000D01*
G75*
G02*
X128975000Y-43625002I0J249998D01*
G01*
X128975000Y-42374998D01*
G75*
G02*
X129224998Y-42125000I249998J0D01*
G01*
X129850002Y-42125000D01*
G75*
G02*
X130100000Y-42374998I0J-249998D01*
G01*
G37*
G36*
G01*
X133025000Y-42374998D02*
X133025000Y-43625002D01*
G75*
G02*
X132775002Y-43875000I-249998J0D01*
G01*
X132149998Y-43875000D01*
G75*
G02*
X131900000Y-43625002I0J249998D01*
G01*
X131900000Y-42374998D01*
G75*
G02*
X132149998Y-42125000I249998J0D01*
G01*
X132775002Y-42125000D01*
G75*
G02*
X133025000Y-42374998I0J-249998D01*
G01*
G37*
%TD*%
%TO.C,R9*%
G36*
G01*
X130100000Y-45374998D02*
X130100000Y-46625002D01*
G75*
G02*
X129850002Y-46875000I-249998J0D01*
G01*
X129224998Y-46875000D01*
G75*
G02*
X128975000Y-46625002I0J249998D01*
G01*
X128975000Y-45374998D01*
G75*
G02*
X129224998Y-45125000I249998J0D01*
G01*
X129850002Y-45125000D01*
G75*
G02*
X130100000Y-45374998I0J-249998D01*
G01*
G37*
G36*
G01*
X133025000Y-45374998D02*
X133025000Y-46625002D01*
G75*
G02*
X132775002Y-46875000I-249998J0D01*
G01*
X132149998Y-46875000D01*
G75*
G02*
X131900000Y-46625002I0J249998D01*
G01*
X131900000Y-45374998D01*
G75*
G02*
X132149998Y-45125000I249998J0D01*
G01*
X132775002Y-45125000D01*
G75*
G02*
X133025000Y-45374998I0J-249998D01*
G01*
G37*
%TD*%
%TO.C,R10*%
G36*
G01*
X130100000Y-48374998D02*
X130100000Y-49625002D01*
G75*
G02*
X129850002Y-49875000I-249998J0D01*
G01*
X129224998Y-49875000D01*
G75*
G02*
X128975000Y-49625002I0J249998D01*
G01*
X128975000Y-48374998D01*
G75*
G02*
X129224998Y-48125000I249998J0D01*
G01*
X129850002Y-48125000D01*
G75*
G02*
X130100000Y-48374998I0J-249998D01*
G01*
G37*
G36*
G01*
X133025000Y-48374998D02*
X133025000Y-49625002D01*
G75*
G02*
X132775002Y-49875000I-249998J0D01*
G01*
X132149998Y-49875000D01*
G75*
G02*
X131900000Y-49625002I0J249998D01*
G01*
X131900000Y-48374998D01*
G75*
G02*
X132149998Y-48125000I249998J0D01*
G01*
X132775002Y-48125000D01*
G75*
G02*
X133025000Y-48374998I0J-249998D01*
G01*
G37*
%TD*%
%TO.C,R11*%
G36*
G01*
X130100000Y-51374998D02*
X130100000Y-52625002D01*
G75*
G02*
X129850002Y-52875000I-249998J0D01*
G01*
X129224998Y-52875000D01*
G75*
G02*
X128975000Y-52625002I0J249998D01*
G01*
X128975000Y-51374998D01*
G75*
G02*
X129224998Y-51125000I249998J0D01*
G01*
X129850002Y-51125000D01*
G75*
G02*
X130100000Y-51374998I0J-249998D01*
G01*
G37*
G36*
G01*
X133025000Y-51374998D02*
X133025000Y-52625002D01*
G75*
G02*
X132775002Y-52875000I-249998J0D01*
G01*
X132149998Y-52875000D01*
G75*
G02*
X131900000Y-52625002I0J249998D01*
G01*
X131900000Y-51374998D01*
G75*
G02*
X132149998Y-51125000I249998J0D01*
G01*
X132775002Y-51125000D01*
G75*
G02*
X133025000Y-51374998I0J-249998D01*
G01*
G37*
%TD*%
%TO.C,R12*%
G36*
G01*
X130100000Y-54374998D02*
X130100000Y-55625002D01*
G75*
G02*
X129850002Y-55875000I-249998J0D01*
G01*
X129224998Y-55875000D01*
G75*
G02*
X128975000Y-55625002I0J249998D01*
G01*
X128975000Y-54374998D01*
G75*
G02*
X129224998Y-54125000I249998J0D01*
G01*
X129850002Y-54125000D01*
G75*
G02*
X130100000Y-54374998I0J-249998D01*
G01*
G37*
G36*
G01*
X133025000Y-54374998D02*
X133025000Y-55625002D01*
G75*
G02*
X132775002Y-55875000I-249998J0D01*
G01*
X132149998Y-55875000D01*
G75*
G02*
X131900000Y-55625002I0J249998D01*
G01*
X131900000Y-54374998D01*
G75*
G02*
X132149998Y-54125000I249998J0D01*
G01*
X132775002Y-54125000D01*
G75*
G02*
X133025000Y-54374998I0J-249998D01*
G01*
G37*
%TD*%
%TO.C,R13*%
G36*
G01*
X130100000Y-57374998D02*
X130100000Y-58625002D01*
G75*
G02*
X129850002Y-58875000I-249998J0D01*
G01*
X129224998Y-58875000D01*
G75*
G02*
X128975000Y-58625002I0J249998D01*
G01*
X128975000Y-57374998D01*
G75*
G02*
X129224998Y-57125000I249998J0D01*
G01*
X129850002Y-57125000D01*
G75*
G02*
X130100000Y-57374998I0J-249998D01*
G01*
G37*
G36*
G01*
X133025000Y-57374998D02*
X133025000Y-58625002D01*
G75*
G02*
X132775002Y-58875000I-249998J0D01*
G01*
X132149998Y-58875000D01*
G75*
G02*
X131900000Y-58625002I0J249998D01*
G01*
X131900000Y-57374998D01*
G75*
G02*
X132149998Y-57125000I249998J0D01*
G01*
X132775002Y-57125000D01*
G75*
G02*
X133025000Y-57374998I0J-249998D01*
G01*
G37*
%TD*%
%TO.C,R14*%
G36*
G01*
X130100000Y-60374998D02*
X130100000Y-61625002D01*
G75*
G02*
X129850002Y-61875000I-249998J0D01*
G01*
X129224998Y-61875000D01*
G75*
G02*
X128975000Y-61625002I0J249998D01*
G01*
X128975000Y-60374998D01*
G75*
G02*
X129224998Y-60125000I249998J0D01*
G01*
X129850002Y-60125000D01*
G75*
G02*
X130100000Y-60374998I0J-249998D01*
G01*
G37*
G36*
G01*
X133025000Y-60374998D02*
X133025000Y-61625002D01*
G75*
G02*
X132775002Y-61875000I-249998J0D01*
G01*
X132149998Y-61875000D01*
G75*
G02*
X131900000Y-61625002I0J249998D01*
G01*
X131900000Y-60374998D01*
G75*
G02*
X132149998Y-60125000I249998J0D01*
G01*
X132775002Y-60125000D01*
G75*
G02*
X133025000Y-60374998I0J-249998D01*
G01*
G37*
%TD*%
%TO.C,R15*%
G36*
G01*
X130100000Y-63374998D02*
X130100000Y-64625002D01*
G75*
G02*
X129850002Y-64875000I-249998J0D01*
G01*
X129224998Y-64875000D01*
G75*
G02*
X128975000Y-64625002I0J249998D01*
G01*
X128975000Y-63374998D01*
G75*
G02*
X129224998Y-63125000I249998J0D01*
G01*
X129850002Y-63125000D01*
G75*
G02*
X130100000Y-63374998I0J-249998D01*
G01*
G37*
G36*
G01*
X133025000Y-63374998D02*
X133025000Y-64625002D01*
G75*
G02*
X132775002Y-64875000I-249998J0D01*
G01*
X132149998Y-64875000D01*
G75*
G02*
X131900000Y-64625002I0J249998D01*
G01*
X131900000Y-63374998D01*
G75*
G02*
X132149998Y-63125000I249998J0D01*
G01*
X132775002Y-63125000D01*
G75*
G02*
X133025000Y-63374998I0J-249998D01*
G01*
G37*
%TD*%
%TO.C,R16*%
G36*
G01*
X130100000Y-66374998D02*
X130100000Y-67625002D01*
G75*
G02*
X129850002Y-67875000I-249998J0D01*
G01*
X129224998Y-67875000D01*
G75*
G02*
X128975000Y-67625002I0J249998D01*
G01*
X128975000Y-66374998D01*
G75*
G02*
X129224998Y-66125000I249998J0D01*
G01*
X129850002Y-66125000D01*
G75*
G02*
X130100000Y-66374998I0J-249998D01*
G01*
G37*
G36*
G01*
X133025000Y-66374998D02*
X133025000Y-67625002D01*
G75*
G02*
X132775002Y-67875000I-249998J0D01*
G01*
X132149998Y-67875000D01*
G75*
G02*
X131900000Y-67625002I0J249998D01*
G01*
X131900000Y-66374998D01*
G75*
G02*
X132149998Y-66125000I249998J0D01*
G01*
X132775002Y-66125000D01*
G75*
G02*
X133025000Y-66374998I0J-249998D01*
G01*
G37*
%TD*%
%TO.C,R18*%
G36*
G01*
X130100000Y-75374998D02*
X130100000Y-76625002D01*
G75*
G02*
X129850002Y-76875000I-249998J0D01*
G01*
X129224998Y-76875000D01*
G75*
G02*
X128975000Y-76625002I0J249998D01*
G01*
X128975000Y-75374998D01*
G75*
G02*
X129224998Y-75125000I249998J0D01*
G01*
X129850002Y-75125000D01*
G75*
G02*
X130100000Y-75374998I0J-249998D01*
G01*
G37*
G36*
G01*
X133025000Y-75374998D02*
X133025000Y-76625002D01*
G75*
G02*
X132775002Y-76875000I-249998J0D01*
G01*
X132149998Y-76875000D01*
G75*
G02*
X131900000Y-76625002I0J249998D01*
G01*
X131900000Y-75374998D01*
G75*
G02*
X132149998Y-75125000I249998J0D01*
G01*
X132775002Y-75125000D01*
G75*
G02*
X133025000Y-75374998I0J-249998D01*
G01*
G37*
%TD*%
%TO.C,R19*%
G36*
G01*
X130100000Y-78374998D02*
X130100000Y-79625002D01*
G75*
G02*
X129850002Y-79875000I-249998J0D01*
G01*
X129224998Y-79875000D01*
G75*
G02*
X128975000Y-79625002I0J249998D01*
G01*
X128975000Y-78374998D01*
G75*
G02*
X129224998Y-78125000I249998J0D01*
G01*
X129850002Y-78125000D01*
G75*
G02*
X130100000Y-78374998I0J-249998D01*
G01*
G37*
G36*
G01*
X133025000Y-78374998D02*
X133025000Y-79625002D01*
G75*
G02*
X132775002Y-79875000I-249998J0D01*
G01*
X132149998Y-79875000D01*
G75*
G02*
X131900000Y-79625002I0J249998D01*
G01*
X131900000Y-78374998D01*
G75*
G02*
X132149998Y-78125000I249998J0D01*
G01*
X132775002Y-78125000D01*
G75*
G02*
X133025000Y-78374998I0J-249998D01*
G01*
G37*
%TD*%
%TO.C,R20*%
G36*
G01*
X130100000Y-81374998D02*
X130100000Y-82625002D01*
G75*
G02*
X129850002Y-82875000I-249998J0D01*
G01*
X129224998Y-82875000D01*
G75*
G02*
X128975000Y-82625002I0J249998D01*
G01*
X128975000Y-81374998D01*
G75*
G02*
X129224998Y-81125000I249998J0D01*
G01*
X129850002Y-81125000D01*
G75*
G02*
X130100000Y-81374998I0J-249998D01*
G01*
G37*
G36*
G01*
X133025000Y-81374998D02*
X133025000Y-82625002D01*
G75*
G02*
X132775002Y-82875000I-249998J0D01*
G01*
X132149998Y-82875000D01*
G75*
G02*
X131900000Y-82625002I0J249998D01*
G01*
X131900000Y-81374998D01*
G75*
G02*
X132149998Y-81125000I249998J0D01*
G01*
X132775002Y-81125000D01*
G75*
G02*
X133025000Y-81374998I0J-249998D01*
G01*
G37*
%TD*%
%TO.C,R21*%
G36*
G01*
X130100000Y-84374998D02*
X130100000Y-85625002D01*
G75*
G02*
X129850002Y-85875000I-249998J0D01*
G01*
X129224998Y-85875000D01*
G75*
G02*
X128975000Y-85625002I0J249998D01*
G01*
X128975000Y-84374998D01*
G75*
G02*
X129224998Y-84125000I249998J0D01*
G01*
X129850002Y-84125000D01*
G75*
G02*
X130100000Y-84374998I0J-249998D01*
G01*
G37*
G36*
G01*
X133025000Y-84374998D02*
X133025000Y-85625002D01*
G75*
G02*
X132775002Y-85875000I-249998J0D01*
G01*
X132149998Y-85875000D01*
G75*
G02*
X131900000Y-85625002I0J249998D01*
G01*
X131900000Y-84374998D01*
G75*
G02*
X132149998Y-84125000I249998J0D01*
G01*
X132775002Y-84125000D01*
G75*
G02*
X133025000Y-84374998I0J-249998D01*
G01*
G37*
%TD*%
%TO.C,R22*%
G36*
G01*
X130100000Y-87374998D02*
X130100000Y-88625002D01*
G75*
G02*
X129850002Y-88875000I-249998J0D01*
G01*
X129224998Y-88875000D01*
G75*
G02*
X128975000Y-88625002I0J249998D01*
G01*
X128975000Y-87374998D01*
G75*
G02*
X129224998Y-87125000I249998J0D01*
G01*
X129850002Y-87125000D01*
G75*
G02*
X130100000Y-87374998I0J-249998D01*
G01*
G37*
G36*
G01*
X133025000Y-87374998D02*
X133025000Y-88625002D01*
G75*
G02*
X132775002Y-88875000I-249998J0D01*
G01*
X132149998Y-88875000D01*
G75*
G02*
X131900000Y-88625002I0J249998D01*
G01*
X131900000Y-87374998D01*
G75*
G02*
X132149998Y-87125000I249998J0D01*
G01*
X132775002Y-87125000D01*
G75*
G02*
X133025000Y-87374998I0J-249998D01*
G01*
G37*
%TD*%
%TO.C,R23*%
G36*
G01*
X130100000Y-90374998D02*
X130100000Y-91625002D01*
G75*
G02*
X129850002Y-91875000I-249998J0D01*
G01*
X129224998Y-91875000D01*
G75*
G02*
X128975000Y-91625002I0J249998D01*
G01*
X128975000Y-90374998D01*
G75*
G02*
X129224998Y-90125000I249998J0D01*
G01*
X129850002Y-90125000D01*
G75*
G02*
X130100000Y-90374998I0J-249998D01*
G01*
G37*
G36*
G01*
X133025000Y-90374998D02*
X133025000Y-91625002D01*
G75*
G02*
X132775002Y-91875000I-249998J0D01*
G01*
X132149998Y-91875000D01*
G75*
G02*
X131900000Y-91625002I0J249998D01*
G01*
X131900000Y-90374998D01*
G75*
G02*
X132149998Y-90125000I249998J0D01*
G01*
X132775002Y-90125000D01*
G75*
G02*
X133025000Y-90374998I0J-249998D01*
G01*
G37*
%TD*%
%TO.C,R24*%
G36*
G01*
X130100000Y-93374998D02*
X130100000Y-94625002D01*
G75*
G02*
X129850002Y-94875000I-249998J0D01*
G01*
X129224998Y-94875000D01*
G75*
G02*
X128975000Y-94625002I0J249998D01*
G01*
X128975000Y-93374998D01*
G75*
G02*
X129224998Y-93125000I249998J0D01*
G01*
X129850002Y-93125000D01*
G75*
G02*
X130100000Y-93374998I0J-249998D01*
G01*
G37*
G36*
G01*
X133025000Y-93374998D02*
X133025000Y-94625002D01*
G75*
G02*
X132775002Y-94875000I-249998J0D01*
G01*
X132149998Y-94875000D01*
G75*
G02*
X131900000Y-94625002I0J249998D01*
G01*
X131900000Y-93374998D01*
G75*
G02*
X132149998Y-93125000I249998J0D01*
G01*
X132775002Y-93125000D01*
G75*
G02*
X133025000Y-93374998I0J-249998D01*
G01*
G37*
%TD*%
%TO.C,R25*%
G36*
G01*
X130100000Y-96374998D02*
X130100000Y-97625002D01*
G75*
G02*
X129850002Y-97875000I-249998J0D01*
G01*
X129224998Y-97875000D01*
G75*
G02*
X128975000Y-97625002I0J249998D01*
G01*
X128975000Y-96374998D01*
G75*
G02*
X129224998Y-96125000I249998J0D01*
G01*
X129850002Y-96125000D01*
G75*
G02*
X130100000Y-96374998I0J-249998D01*
G01*
G37*
G36*
G01*
X133025000Y-96374998D02*
X133025000Y-97625002D01*
G75*
G02*
X132775002Y-97875000I-249998J0D01*
G01*
X132149998Y-97875000D01*
G75*
G02*
X131900000Y-97625002I0J249998D01*
G01*
X131900000Y-96374998D01*
G75*
G02*
X132149998Y-96125000I249998J0D01*
G01*
X132775002Y-96125000D01*
G75*
G02*
X133025000Y-96374998I0J-249998D01*
G01*
G37*
%TD*%
%TO.C,R26*%
G36*
G01*
X130100000Y-99374998D02*
X130100000Y-100625002D01*
G75*
G02*
X129850002Y-100875000I-249998J0D01*
G01*
X129224998Y-100875000D01*
G75*
G02*
X128975000Y-100625002I0J249998D01*
G01*
X128975000Y-99374998D01*
G75*
G02*
X129224998Y-99125000I249998J0D01*
G01*
X129850002Y-99125000D01*
G75*
G02*
X130100000Y-99374998I0J-249998D01*
G01*
G37*
G36*
G01*
X133025000Y-99374998D02*
X133025000Y-100625002D01*
G75*
G02*
X132775002Y-100875000I-249998J0D01*
G01*
X132149998Y-100875000D01*
G75*
G02*
X131900000Y-100625002I0J249998D01*
G01*
X131900000Y-99374998D01*
G75*
G02*
X132149998Y-99125000I249998J0D01*
G01*
X132775002Y-99125000D01*
G75*
G02*
X133025000Y-99374998I0J-249998D01*
G01*
G37*
%TD*%
%TO.C,R27*%
G36*
G01*
X130100000Y-102374998D02*
X130100000Y-103625002D01*
G75*
G02*
X129850002Y-103875000I-249998J0D01*
G01*
X129224998Y-103875000D01*
G75*
G02*
X128975000Y-103625002I0J249998D01*
G01*
X128975000Y-102374998D01*
G75*
G02*
X129224998Y-102125000I249998J0D01*
G01*
X129850002Y-102125000D01*
G75*
G02*
X130100000Y-102374998I0J-249998D01*
G01*
G37*
G36*
G01*
X133025000Y-102374998D02*
X133025000Y-103625002D01*
G75*
G02*
X132775002Y-103875000I-249998J0D01*
G01*
X132149998Y-103875000D01*
G75*
G02*
X131900000Y-103625002I0J249998D01*
G01*
X131900000Y-102374998D01*
G75*
G02*
X132149998Y-102125000I249998J0D01*
G01*
X132775002Y-102125000D01*
G75*
G02*
X133025000Y-102374998I0J-249998D01*
G01*
G37*
%TD*%
%TO.C,R28*%
G36*
G01*
X130100000Y-105374998D02*
X130100000Y-106625002D01*
G75*
G02*
X129850002Y-106875000I-249998J0D01*
G01*
X129224998Y-106875000D01*
G75*
G02*
X128975000Y-106625002I0J249998D01*
G01*
X128975000Y-105374998D01*
G75*
G02*
X129224998Y-105125000I249998J0D01*
G01*
X129850002Y-105125000D01*
G75*
G02*
X130100000Y-105374998I0J-249998D01*
G01*
G37*
G36*
G01*
X133025000Y-105374998D02*
X133025000Y-106625002D01*
G75*
G02*
X132775002Y-106875000I-249998J0D01*
G01*
X132149998Y-106875000D01*
G75*
G02*
X131900000Y-106625002I0J249998D01*
G01*
X131900000Y-105374998D01*
G75*
G02*
X132149998Y-105125000I249998J0D01*
G01*
X132775002Y-105125000D01*
G75*
G02*
X133025000Y-105374998I0J-249998D01*
G01*
G37*
%TD*%
%TO.C,R29*%
G36*
G01*
X119625002Y-69100000D02*
X118374998Y-69100000D01*
G75*
G02*
X118125000Y-68850002I0J249998D01*
G01*
X118125000Y-68224998D01*
G75*
G02*
X118374998Y-67975000I249998J0D01*
G01*
X119625002Y-67975000D01*
G75*
G02*
X119875000Y-68224998I0J-249998D01*
G01*
X119875000Y-68850002D01*
G75*
G02*
X119625002Y-69100000I-249998J0D01*
G01*
G37*
G36*
G01*
X119625002Y-72025000D02*
X118374998Y-72025000D01*
G75*
G02*
X118125000Y-71775002I0J249998D01*
G01*
X118125000Y-71149998D01*
G75*
G02*
X118374998Y-70900000I249998J0D01*
G01*
X119625002Y-70900000D01*
G75*
G02*
X119875000Y-71149998I0J-249998D01*
G01*
X119875000Y-71775002D01*
G75*
G02*
X119625002Y-72025000I-249998J0D01*
G01*
G37*
%TD*%
%TO.C,R30*%
G36*
G01*
X119625002Y-76600000D02*
X118374998Y-76600000D01*
G75*
G02*
X118125000Y-76350002I0J249998D01*
G01*
X118125000Y-75724998D01*
G75*
G02*
X118374998Y-75475000I249998J0D01*
G01*
X119625002Y-75475000D01*
G75*
G02*
X119875000Y-75724998I0J-249998D01*
G01*
X119875000Y-76350002D01*
G75*
G02*
X119625002Y-76600000I-249998J0D01*
G01*
G37*
G36*
G01*
X119625002Y-79525000D02*
X118374998Y-79525000D01*
G75*
G02*
X118125000Y-79275002I0J249998D01*
G01*
X118125000Y-78649998D01*
G75*
G02*
X118374998Y-78400000I249998J0D01*
G01*
X119625002Y-78400000D01*
G75*
G02*
X119875000Y-78649998I0J-249998D01*
G01*
X119875000Y-79275002D01*
G75*
G02*
X119625002Y-79525000I-249998J0D01*
G01*
G37*
%TD*%
%TO.C,R31*%
G36*
G01*
X119625002Y-84100000D02*
X118374998Y-84100000D01*
G75*
G02*
X118125000Y-83850002I0J249998D01*
G01*
X118125000Y-83224998D01*
G75*
G02*
X118374998Y-82975000I249998J0D01*
G01*
X119625002Y-82975000D01*
G75*
G02*
X119875000Y-83224998I0J-249998D01*
G01*
X119875000Y-83850002D01*
G75*
G02*
X119625002Y-84100000I-249998J0D01*
G01*
G37*
G36*
G01*
X119625002Y-87025000D02*
X118374998Y-87025000D01*
G75*
G02*
X118125000Y-86775002I0J249998D01*
G01*
X118125000Y-86149998D01*
G75*
G02*
X118374998Y-85900000I249998J0D01*
G01*
X119625002Y-85900000D01*
G75*
G02*
X119875000Y-86149998I0J-249998D01*
G01*
X119875000Y-86775002D01*
G75*
G02*
X119625002Y-87025000I-249998J0D01*
G01*
G37*
%TD*%
%TO.C,U1*%
G36*
G01*
X111990000Y-38250000D02*
X111990000Y-37950000D01*
G75*
G02*
X112140000Y-37800000I150000J0D01*
G01*
X113790000Y-37800000D01*
G75*
G02*
X113940000Y-37950000I0J-150000D01*
G01*
X113940000Y-38250000D01*
G75*
G02*
X113790000Y-38400000I-150000J0D01*
G01*
X112140000Y-38400000D01*
G75*
G02*
X111990000Y-38250000I0J150000D01*
G01*
G37*
G36*
G01*
X111990000Y-39520000D02*
X111990000Y-39220000D01*
G75*
G02*
X112140000Y-39070000I150000J0D01*
G01*
X113790000Y-39070000D01*
G75*
G02*
X113940000Y-39220000I0J-150000D01*
G01*
X113940000Y-39520000D01*
G75*
G02*
X113790000Y-39670000I-150000J0D01*
G01*
X112140000Y-39670000D01*
G75*
G02*
X111990000Y-39520000I0J150000D01*
G01*
G37*
G36*
G01*
X111990000Y-40790000D02*
X111990000Y-40490000D01*
G75*
G02*
X112140000Y-40340000I150000J0D01*
G01*
X113790000Y-40340000D01*
G75*
G02*
X113940000Y-40490000I0J-150000D01*
G01*
X113940000Y-40790000D01*
G75*
G02*
X113790000Y-40940000I-150000J0D01*
G01*
X112140000Y-40940000D01*
G75*
G02*
X111990000Y-40790000I0J150000D01*
G01*
G37*
G36*
G01*
X111990000Y-42060000D02*
X111990000Y-41760000D01*
G75*
G02*
X112140000Y-41610000I150000J0D01*
G01*
X113790000Y-41610000D01*
G75*
G02*
X113940000Y-41760000I0J-150000D01*
G01*
X113940000Y-42060000D01*
G75*
G02*
X113790000Y-42210000I-150000J0D01*
G01*
X112140000Y-42210000D01*
G75*
G02*
X111990000Y-42060000I0J150000D01*
G01*
G37*
G36*
G01*
X111990000Y-43330000D02*
X111990000Y-43030000D01*
G75*
G02*
X112140000Y-42880000I150000J0D01*
G01*
X113790000Y-42880000D01*
G75*
G02*
X113940000Y-43030000I0J-150000D01*
G01*
X113940000Y-43330000D01*
G75*
G02*
X113790000Y-43480000I-150000J0D01*
G01*
X112140000Y-43480000D01*
G75*
G02*
X111990000Y-43330000I0J150000D01*
G01*
G37*
G36*
G01*
X111990000Y-44600000D02*
X111990000Y-44300000D01*
G75*
G02*
X112140000Y-44150000I150000J0D01*
G01*
X113790000Y-44150000D01*
G75*
G02*
X113940000Y-44300000I0J-150000D01*
G01*
X113940000Y-44600000D01*
G75*
G02*
X113790000Y-44750000I-150000J0D01*
G01*
X112140000Y-44750000D01*
G75*
G02*
X111990000Y-44600000I0J150000D01*
G01*
G37*
G36*
G01*
X111990000Y-45870000D02*
X111990000Y-45570000D01*
G75*
G02*
X112140000Y-45420000I150000J0D01*
G01*
X113790000Y-45420000D01*
G75*
G02*
X113940000Y-45570000I0J-150000D01*
G01*
X113940000Y-45870000D01*
G75*
G02*
X113790000Y-46020000I-150000J0D01*
G01*
X112140000Y-46020000D01*
G75*
G02*
X111990000Y-45870000I0J150000D01*
G01*
G37*
G36*
G01*
X111990000Y-47140000D02*
X111990000Y-46840000D01*
G75*
G02*
X112140000Y-46690000I150000J0D01*
G01*
X113790000Y-46690000D01*
G75*
G02*
X113940000Y-46840000I0J-150000D01*
G01*
X113940000Y-47140000D01*
G75*
G02*
X113790000Y-47290000I-150000J0D01*
G01*
X112140000Y-47290000D01*
G75*
G02*
X111990000Y-47140000I0J150000D01*
G01*
G37*
G36*
G01*
X107040000Y-47140000D02*
X107040000Y-46840000D01*
G75*
G02*
X107190000Y-46690000I150000J0D01*
G01*
X108840000Y-46690000D01*
G75*
G02*
X108990000Y-46840000I0J-150000D01*
G01*
X108990000Y-47140000D01*
G75*
G02*
X108840000Y-47290000I-150000J0D01*
G01*
X107190000Y-47290000D01*
G75*
G02*
X107040000Y-47140000I0J150000D01*
G01*
G37*
G36*
G01*
X107040000Y-45870000D02*
X107040000Y-45570000D01*
G75*
G02*
X107190000Y-45420000I150000J0D01*
G01*
X108840000Y-45420000D01*
G75*
G02*
X108990000Y-45570000I0J-150000D01*
G01*
X108990000Y-45870000D01*
G75*
G02*
X108840000Y-46020000I-150000J0D01*
G01*
X107190000Y-46020000D01*
G75*
G02*
X107040000Y-45870000I0J150000D01*
G01*
G37*
G36*
G01*
X107040000Y-44600000D02*
X107040000Y-44300000D01*
G75*
G02*
X107190000Y-44150000I150000J0D01*
G01*
X108840000Y-44150000D01*
G75*
G02*
X108990000Y-44300000I0J-150000D01*
G01*
X108990000Y-44600000D01*
G75*
G02*
X108840000Y-44750000I-150000J0D01*
G01*
X107190000Y-44750000D01*
G75*
G02*
X107040000Y-44600000I0J150000D01*
G01*
G37*
G36*
G01*
X107040000Y-43330000D02*
X107040000Y-43030000D01*
G75*
G02*
X107190000Y-42880000I150000J0D01*
G01*
X108840000Y-42880000D01*
G75*
G02*
X108990000Y-43030000I0J-150000D01*
G01*
X108990000Y-43330000D01*
G75*
G02*
X108840000Y-43480000I-150000J0D01*
G01*
X107190000Y-43480000D01*
G75*
G02*
X107040000Y-43330000I0J150000D01*
G01*
G37*
G36*
G01*
X107040000Y-42060000D02*
X107040000Y-41760000D01*
G75*
G02*
X107190000Y-41610000I150000J0D01*
G01*
X108840000Y-41610000D01*
G75*
G02*
X108990000Y-41760000I0J-150000D01*
G01*
X108990000Y-42060000D01*
G75*
G02*
X108840000Y-42210000I-150000J0D01*
G01*
X107190000Y-42210000D01*
G75*
G02*
X107040000Y-42060000I0J150000D01*
G01*
G37*
G36*
G01*
X107040000Y-40790000D02*
X107040000Y-40490000D01*
G75*
G02*
X107190000Y-40340000I150000J0D01*
G01*
X108840000Y-40340000D01*
G75*
G02*
X108990000Y-40490000I0J-150000D01*
G01*
X108990000Y-40790000D01*
G75*
G02*
X108840000Y-40940000I-150000J0D01*
G01*
X107190000Y-40940000D01*
G75*
G02*
X107040000Y-40790000I0J150000D01*
G01*
G37*
G36*
G01*
X107040000Y-39520000D02*
X107040000Y-39220000D01*
G75*
G02*
X107190000Y-39070000I150000J0D01*
G01*
X108840000Y-39070000D01*
G75*
G02*
X108990000Y-39220000I0J-150000D01*
G01*
X108990000Y-39520000D01*
G75*
G02*
X108840000Y-39670000I-150000J0D01*
G01*
X107190000Y-39670000D01*
G75*
G02*
X107040000Y-39520000I0J150000D01*
G01*
G37*
G36*
G01*
X107040000Y-38250000D02*
X107040000Y-37950000D01*
G75*
G02*
X107190000Y-37800000I150000J0D01*
G01*
X108840000Y-37800000D01*
G75*
G02*
X108990000Y-37950000I0J-150000D01*
G01*
X108990000Y-38250000D01*
G75*
G02*
X108840000Y-38400000I-150000J0D01*
G01*
X107190000Y-38400000D01*
G75*
G02*
X107040000Y-38250000I0J150000D01*
G01*
G37*
%TD*%
%TO.C,U3*%
G36*
G01*
X144375000Y-80795000D02*
X144375000Y-80495000D01*
G75*
G02*
X144525000Y-80345000I150000J0D01*
G01*
X146175000Y-80345000D01*
G75*
G02*
X146325000Y-80495000I0J-150000D01*
G01*
X146325000Y-80795000D01*
G75*
G02*
X146175000Y-80945000I-150000J0D01*
G01*
X144525000Y-80945000D01*
G75*
G02*
X144375000Y-80795000I0J150000D01*
G01*
G37*
G36*
G01*
X144375000Y-82065000D02*
X144375000Y-81765000D01*
G75*
G02*
X144525000Y-81615000I150000J0D01*
G01*
X146175000Y-81615000D01*
G75*
G02*
X146325000Y-81765000I0J-150000D01*
G01*
X146325000Y-82065000D01*
G75*
G02*
X146175000Y-82215000I-150000J0D01*
G01*
X144525000Y-82215000D01*
G75*
G02*
X144375000Y-82065000I0J150000D01*
G01*
G37*
G36*
G01*
X144375000Y-83335000D02*
X144375000Y-83035000D01*
G75*
G02*
X144525000Y-82885000I150000J0D01*
G01*
X146175000Y-82885000D01*
G75*
G02*
X146325000Y-83035000I0J-150000D01*
G01*
X146325000Y-83335000D01*
G75*
G02*
X146175000Y-83485000I-150000J0D01*
G01*
X144525000Y-83485000D01*
G75*
G02*
X144375000Y-83335000I0J150000D01*
G01*
G37*
G36*
G01*
X144375000Y-84605000D02*
X144375000Y-84305000D01*
G75*
G02*
X144525000Y-84155000I150000J0D01*
G01*
X146175000Y-84155000D01*
G75*
G02*
X146325000Y-84305000I0J-150000D01*
G01*
X146325000Y-84605000D01*
G75*
G02*
X146175000Y-84755000I-150000J0D01*
G01*
X144525000Y-84755000D01*
G75*
G02*
X144375000Y-84605000I0J150000D01*
G01*
G37*
G36*
G01*
X144375000Y-85875000D02*
X144375000Y-85575000D01*
G75*
G02*
X144525000Y-85425000I150000J0D01*
G01*
X146175000Y-85425000D01*
G75*
G02*
X146325000Y-85575000I0J-150000D01*
G01*
X146325000Y-85875000D01*
G75*
G02*
X146175000Y-86025000I-150000J0D01*
G01*
X144525000Y-86025000D01*
G75*
G02*
X144375000Y-85875000I0J150000D01*
G01*
G37*
G36*
G01*
X144375000Y-87145000D02*
X144375000Y-86845000D01*
G75*
G02*
X144525000Y-86695000I150000J0D01*
G01*
X146175000Y-86695000D01*
G75*
G02*
X146325000Y-86845000I0J-150000D01*
G01*
X146325000Y-87145000D01*
G75*
G02*
X146175000Y-87295000I-150000J0D01*
G01*
X144525000Y-87295000D01*
G75*
G02*
X144375000Y-87145000I0J150000D01*
G01*
G37*
G36*
G01*
X144375000Y-88415000D02*
X144375000Y-88115000D01*
G75*
G02*
X144525000Y-87965000I150000J0D01*
G01*
X146175000Y-87965000D01*
G75*
G02*
X146325000Y-88115000I0J-150000D01*
G01*
X146325000Y-88415000D01*
G75*
G02*
X146175000Y-88565000I-150000J0D01*
G01*
X144525000Y-88565000D01*
G75*
G02*
X144375000Y-88415000I0J150000D01*
G01*
G37*
G36*
G01*
X144375000Y-89685000D02*
X144375000Y-89385000D01*
G75*
G02*
X144525000Y-89235000I150000J0D01*
G01*
X146175000Y-89235000D01*
G75*
G02*
X146325000Y-89385000I0J-150000D01*
G01*
X146325000Y-89685000D01*
G75*
G02*
X146175000Y-89835000I-150000J0D01*
G01*
X144525000Y-89835000D01*
G75*
G02*
X144375000Y-89685000I0J150000D01*
G01*
G37*
G36*
G01*
X139425000Y-89685000D02*
X139425000Y-89385000D01*
G75*
G02*
X139575000Y-89235000I150000J0D01*
G01*
X141225000Y-89235000D01*
G75*
G02*
X141375000Y-89385000I0J-150000D01*
G01*
X141375000Y-89685000D01*
G75*
G02*
X141225000Y-89835000I-150000J0D01*
G01*
X139575000Y-89835000D01*
G75*
G02*
X139425000Y-89685000I0J150000D01*
G01*
G37*
G36*
G01*
X139425000Y-88415000D02*
X139425000Y-88115000D01*
G75*
G02*
X139575000Y-87965000I150000J0D01*
G01*
X141225000Y-87965000D01*
G75*
G02*
X141375000Y-88115000I0J-150000D01*
G01*
X141375000Y-88415000D01*
G75*
G02*
X141225000Y-88565000I-150000J0D01*
G01*
X139575000Y-88565000D01*
G75*
G02*
X139425000Y-88415000I0J150000D01*
G01*
G37*
G36*
G01*
X139425000Y-87145000D02*
X139425000Y-86845000D01*
G75*
G02*
X139575000Y-86695000I150000J0D01*
G01*
X141225000Y-86695000D01*
G75*
G02*
X141375000Y-86845000I0J-150000D01*
G01*
X141375000Y-87145000D01*
G75*
G02*
X141225000Y-87295000I-150000J0D01*
G01*
X139575000Y-87295000D01*
G75*
G02*
X139425000Y-87145000I0J150000D01*
G01*
G37*
G36*
G01*
X139425000Y-85875000D02*
X139425000Y-85575000D01*
G75*
G02*
X139575000Y-85425000I150000J0D01*
G01*
X141225000Y-85425000D01*
G75*
G02*
X141375000Y-85575000I0J-150000D01*
G01*
X141375000Y-85875000D01*
G75*
G02*
X141225000Y-86025000I-150000J0D01*
G01*
X139575000Y-86025000D01*
G75*
G02*
X139425000Y-85875000I0J150000D01*
G01*
G37*
G36*
G01*
X139425000Y-84605000D02*
X139425000Y-84305000D01*
G75*
G02*
X139575000Y-84155000I150000J0D01*
G01*
X141225000Y-84155000D01*
G75*
G02*
X141375000Y-84305000I0J-150000D01*
G01*
X141375000Y-84605000D01*
G75*
G02*
X141225000Y-84755000I-150000J0D01*
G01*
X139575000Y-84755000D01*
G75*
G02*
X139425000Y-84605000I0J150000D01*
G01*
G37*
G36*
G01*
X139425000Y-83335000D02*
X139425000Y-83035000D01*
G75*
G02*
X139575000Y-82885000I150000J0D01*
G01*
X141225000Y-82885000D01*
G75*
G02*
X141375000Y-83035000I0J-150000D01*
G01*
X141375000Y-83335000D01*
G75*
G02*
X141225000Y-83485000I-150000J0D01*
G01*
X139575000Y-83485000D01*
G75*
G02*
X139425000Y-83335000I0J150000D01*
G01*
G37*
G36*
G01*
X139425000Y-82065000D02*
X139425000Y-81765000D01*
G75*
G02*
X139575000Y-81615000I150000J0D01*
G01*
X141225000Y-81615000D01*
G75*
G02*
X141375000Y-81765000I0J-150000D01*
G01*
X141375000Y-82065000D01*
G75*
G02*
X141225000Y-82215000I-150000J0D01*
G01*
X139575000Y-82215000D01*
G75*
G02*
X139425000Y-82065000I0J150000D01*
G01*
G37*
G36*
G01*
X139425000Y-80795000D02*
X139425000Y-80495000D01*
G75*
G02*
X139575000Y-80345000I150000J0D01*
G01*
X141225000Y-80345000D01*
G75*
G02*
X141375000Y-80495000I0J-150000D01*
G01*
X141375000Y-80795000D01*
G75*
G02*
X141225000Y-80945000I-150000J0D01*
G01*
X139575000Y-80945000D01*
G75*
G02*
X139425000Y-80795000I0J150000D01*
G01*
G37*
%TD*%
%TO.C,U2*%
G36*
G01*
X144375000Y-52855000D02*
X144375000Y-52555000D01*
G75*
G02*
X144525000Y-52405000I150000J0D01*
G01*
X146175000Y-52405000D01*
G75*
G02*
X146325000Y-52555000I0J-150000D01*
G01*
X146325000Y-52855000D01*
G75*
G02*
X146175000Y-53005000I-150000J0D01*
G01*
X144525000Y-53005000D01*
G75*
G02*
X144375000Y-52855000I0J150000D01*
G01*
G37*
G36*
G01*
X144375000Y-54125000D02*
X144375000Y-53825000D01*
G75*
G02*
X144525000Y-53675000I150000J0D01*
G01*
X146175000Y-53675000D01*
G75*
G02*
X146325000Y-53825000I0J-150000D01*
G01*
X146325000Y-54125000D01*
G75*
G02*
X146175000Y-54275000I-150000J0D01*
G01*
X144525000Y-54275000D01*
G75*
G02*
X144375000Y-54125000I0J150000D01*
G01*
G37*
G36*
G01*
X144375000Y-55395000D02*
X144375000Y-55095000D01*
G75*
G02*
X144525000Y-54945000I150000J0D01*
G01*
X146175000Y-54945000D01*
G75*
G02*
X146325000Y-55095000I0J-150000D01*
G01*
X146325000Y-55395000D01*
G75*
G02*
X146175000Y-55545000I-150000J0D01*
G01*
X144525000Y-55545000D01*
G75*
G02*
X144375000Y-55395000I0J150000D01*
G01*
G37*
G36*
G01*
X144375000Y-56665000D02*
X144375000Y-56365000D01*
G75*
G02*
X144525000Y-56215000I150000J0D01*
G01*
X146175000Y-56215000D01*
G75*
G02*
X146325000Y-56365000I0J-150000D01*
G01*
X146325000Y-56665000D01*
G75*
G02*
X146175000Y-56815000I-150000J0D01*
G01*
X144525000Y-56815000D01*
G75*
G02*
X144375000Y-56665000I0J150000D01*
G01*
G37*
G36*
G01*
X144375000Y-57935000D02*
X144375000Y-57635000D01*
G75*
G02*
X144525000Y-57485000I150000J0D01*
G01*
X146175000Y-57485000D01*
G75*
G02*
X146325000Y-57635000I0J-150000D01*
G01*
X146325000Y-57935000D01*
G75*
G02*
X146175000Y-58085000I-150000J0D01*
G01*
X144525000Y-58085000D01*
G75*
G02*
X144375000Y-57935000I0J150000D01*
G01*
G37*
G36*
G01*
X144375000Y-59205000D02*
X144375000Y-58905000D01*
G75*
G02*
X144525000Y-58755000I150000J0D01*
G01*
X146175000Y-58755000D01*
G75*
G02*
X146325000Y-58905000I0J-150000D01*
G01*
X146325000Y-59205000D01*
G75*
G02*
X146175000Y-59355000I-150000J0D01*
G01*
X144525000Y-59355000D01*
G75*
G02*
X144375000Y-59205000I0J150000D01*
G01*
G37*
G36*
G01*
X144375000Y-60475000D02*
X144375000Y-60175000D01*
G75*
G02*
X144525000Y-60025000I150000J0D01*
G01*
X146175000Y-60025000D01*
G75*
G02*
X146325000Y-60175000I0J-150000D01*
G01*
X146325000Y-60475000D01*
G75*
G02*
X146175000Y-60625000I-150000J0D01*
G01*
X144525000Y-60625000D01*
G75*
G02*
X144375000Y-60475000I0J150000D01*
G01*
G37*
G36*
G01*
X144375000Y-61745000D02*
X144375000Y-61445000D01*
G75*
G02*
X144525000Y-61295000I150000J0D01*
G01*
X146175000Y-61295000D01*
G75*
G02*
X146325000Y-61445000I0J-150000D01*
G01*
X146325000Y-61745000D01*
G75*
G02*
X146175000Y-61895000I-150000J0D01*
G01*
X144525000Y-61895000D01*
G75*
G02*
X144375000Y-61745000I0J150000D01*
G01*
G37*
G36*
G01*
X139425000Y-61745000D02*
X139425000Y-61445000D01*
G75*
G02*
X139575000Y-61295000I150000J0D01*
G01*
X141225000Y-61295000D01*
G75*
G02*
X141375000Y-61445000I0J-150000D01*
G01*
X141375000Y-61745000D01*
G75*
G02*
X141225000Y-61895000I-150000J0D01*
G01*
X139575000Y-61895000D01*
G75*
G02*
X139425000Y-61745000I0J150000D01*
G01*
G37*
G36*
G01*
X139425000Y-60475000D02*
X139425000Y-60175000D01*
G75*
G02*
X139575000Y-60025000I150000J0D01*
G01*
X141225000Y-60025000D01*
G75*
G02*
X141375000Y-60175000I0J-150000D01*
G01*
X141375000Y-60475000D01*
G75*
G02*
X141225000Y-60625000I-150000J0D01*
G01*
X139575000Y-60625000D01*
G75*
G02*
X139425000Y-60475000I0J150000D01*
G01*
G37*
G36*
G01*
X139425000Y-59205000D02*
X139425000Y-58905000D01*
G75*
G02*
X139575000Y-58755000I150000J0D01*
G01*
X141225000Y-58755000D01*
G75*
G02*
X141375000Y-58905000I0J-150000D01*
G01*
X141375000Y-59205000D01*
G75*
G02*
X141225000Y-59355000I-150000J0D01*
G01*
X139575000Y-59355000D01*
G75*
G02*
X139425000Y-59205000I0J150000D01*
G01*
G37*
G36*
G01*
X139425000Y-57935000D02*
X139425000Y-57635000D01*
G75*
G02*
X139575000Y-57485000I150000J0D01*
G01*
X141225000Y-57485000D01*
G75*
G02*
X141375000Y-57635000I0J-150000D01*
G01*
X141375000Y-57935000D01*
G75*
G02*
X141225000Y-58085000I-150000J0D01*
G01*
X139575000Y-58085000D01*
G75*
G02*
X139425000Y-57935000I0J150000D01*
G01*
G37*
G36*
G01*
X139425000Y-56665000D02*
X139425000Y-56365000D01*
G75*
G02*
X139575000Y-56215000I150000J0D01*
G01*
X141225000Y-56215000D01*
G75*
G02*
X141375000Y-56365000I0J-150000D01*
G01*
X141375000Y-56665000D01*
G75*
G02*
X141225000Y-56815000I-150000J0D01*
G01*
X139575000Y-56815000D01*
G75*
G02*
X139425000Y-56665000I0J150000D01*
G01*
G37*
G36*
G01*
X139425000Y-55395000D02*
X139425000Y-55095000D01*
G75*
G02*
X139575000Y-54945000I150000J0D01*
G01*
X141225000Y-54945000D01*
G75*
G02*
X141375000Y-55095000I0J-150000D01*
G01*
X141375000Y-55395000D01*
G75*
G02*
X141225000Y-55545000I-150000J0D01*
G01*
X139575000Y-55545000D01*
G75*
G02*
X139425000Y-55395000I0J150000D01*
G01*
G37*
G36*
G01*
X139425000Y-54125000D02*
X139425000Y-53825000D01*
G75*
G02*
X139575000Y-53675000I150000J0D01*
G01*
X141225000Y-53675000D01*
G75*
G02*
X141375000Y-53825000I0J-150000D01*
G01*
X141375000Y-54125000D01*
G75*
G02*
X141225000Y-54275000I-150000J0D01*
G01*
X139575000Y-54275000D01*
G75*
G02*
X139425000Y-54125000I0J150000D01*
G01*
G37*
G36*
G01*
X139425000Y-52855000D02*
X139425000Y-52555000D01*
G75*
G02*
X139575000Y-52405000I150000J0D01*
G01*
X141225000Y-52405000D01*
G75*
G02*
X141375000Y-52555000I0J-150000D01*
G01*
X141375000Y-52855000D01*
G75*
G02*
X141225000Y-53005000I-150000J0D01*
G01*
X139575000Y-53005000D01*
G75*
G02*
X139425000Y-52855000I0J150000D01*
G01*
G37*
%TD*%
%TO.C,U4*%
G36*
G01*
X144375000Y-92225000D02*
X144375000Y-91925000D01*
G75*
G02*
X144525000Y-91775000I150000J0D01*
G01*
X146175000Y-91775000D01*
G75*
G02*
X146325000Y-91925000I0J-150000D01*
G01*
X146325000Y-92225000D01*
G75*
G02*
X146175000Y-92375000I-150000J0D01*
G01*
X144525000Y-92375000D01*
G75*
G02*
X144375000Y-92225000I0J150000D01*
G01*
G37*
G36*
G01*
X144375000Y-93495000D02*
X144375000Y-93195000D01*
G75*
G02*
X144525000Y-93045000I150000J0D01*
G01*
X146175000Y-93045000D01*
G75*
G02*
X146325000Y-93195000I0J-150000D01*
G01*
X146325000Y-93495000D01*
G75*
G02*
X146175000Y-93645000I-150000J0D01*
G01*
X144525000Y-93645000D01*
G75*
G02*
X144375000Y-93495000I0J150000D01*
G01*
G37*
G36*
G01*
X144375000Y-94765000D02*
X144375000Y-94465000D01*
G75*
G02*
X144525000Y-94315000I150000J0D01*
G01*
X146175000Y-94315000D01*
G75*
G02*
X146325000Y-94465000I0J-150000D01*
G01*
X146325000Y-94765000D01*
G75*
G02*
X146175000Y-94915000I-150000J0D01*
G01*
X144525000Y-94915000D01*
G75*
G02*
X144375000Y-94765000I0J150000D01*
G01*
G37*
G36*
G01*
X144375000Y-96035000D02*
X144375000Y-95735000D01*
G75*
G02*
X144525000Y-95585000I150000J0D01*
G01*
X146175000Y-95585000D01*
G75*
G02*
X146325000Y-95735000I0J-150000D01*
G01*
X146325000Y-96035000D01*
G75*
G02*
X146175000Y-96185000I-150000J0D01*
G01*
X144525000Y-96185000D01*
G75*
G02*
X144375000Y-96035000I0J150000D01*
G01*
G37*
G36*
G01*
X144375000Y-97305000D02*
X144375000Y-97005000D01*
G75*
G02*
X144525000Y-96855000I150000J0D01*
G01*
X146175000Y-96855000D01*
G75*
G02*
X146325000Y-97005000I0J-150000D01*
G01*
X146325000Y-97305000D01*
G75*
G02*
X146175000Y-97455000I-150000J0D01*
G01*
X144525000Y-97455000D01*
G75*
G02*
X144375000Y-97305000I0J150000D01*
G01*
G37*
G36*
G01*
X144375000Y-98575000D02*
X144375000Y-98275000D01*
G75*
G02*
X144525000Y-98125000I150000J0D01*
G01*
X146175000Y-98125000D01*
G75*
G02*
X146325000Y-98275000I0J-150000D01*
G01*
X146325000Y-98575000D01*
G75*
G02*
X146175000Y-98725000I-150000J0D01*
G01*
X144525000Y-98725000D01*
G75*
G02*
X144375000Y-98575000I0J150000D01*
G01*
G37*
G36*
G01*
X144375000Y-99845000D02*
X144375000Y-99545000D01*
G75*
G02*
X144525000Y-99395000I150000J0D01*
G01*
X146175000Y-99395000D01*
G75*
G02*
X146325000Y-99545000I0J-150000D01*
G01*
X146325000Y-99845000D01*
G75*
G02*
X146175000Y-99995000I-150000J0D01*
G01*
X144525000Y-99995000D01*
G75*
G02*
X144375000Y-99845000I0J150000D01*
G01*
G37*
G36*
G01*
X144375000Y-101115000D02*
X144375000Y-100815000D01*
G75*
G02*
X144525000Y-100665000I150000J0D01*
G01*
X146175000Y-100665000D01*
G75*
G02*
X146325000Y-100815000I0J-150000D01*
G01*
X146325000Y-101115000D01*
G75*
G02*
X146175000Y-101265000I-150000J0D01*
G01*
X144525000Y-101265000D01*
G75*
G02*
X144375000Y-101115000I0J150000D01*
G01*
G37*
G36*
G01*
X139425000Y-101115000D02*
X139425000Y-100815000D01*
G75*
G02*
X139575000Y-100665000I150000J0D01*
G01*
X141225000Y-100665000D01*
G75*
G02*
X141375000Y-100815000I0J-150000D01*
G01*
X141375000Y-101115000D01*
G75*
G02*
X141225000Y-101265000I-150000J0D01*
G01*
X139575000Y-101265000D01*
G75*
G02*
X139425000Y-101115000I0J150000D01*
G01*
G37*
G36*
G01*
X139425000Y-99845000D02*
X139425000Y-99545000D01*
G75*
G02*
X139575000Y-99395000I150000J0D01*
G01*
X141225000Y-99395000D01*
G75*
G02*
X141375000Y-99545000I0J-150000D01*
G01*
X141375000Y-99845000D01*
G75*
G02*
X141225000Y-99995000I-150000J0D01*
G01*
X139575000Y-99995000D01*
G75*
G02*
X139425000Y-99845000I0J150000D01*
G01*
G37*
G36*
G01*
X139425000Y-98575000D02*
X139425000Y-98275000D01*
G75*
G02*
X139575000Y-98125000I150000J0D01*
G01*
X141225000Y-98125000D01*
G75*
G02*
X141375000Y-98275000I0J-150000D01*
G01*
X141375000Y-98575000D01*
G75*
G02*
X141225000Y-98725000I-150000J0D01*
G01*
X139575000Y-98725000D01*
G75*
G02*
X139425000Y-98575000I0J150000D01*
G01*
G37*
G36*
G01*
X139425000Y-97305000D02*
X139425000Y-97005000D01*
G75*
G02*
X139575000Y-96855000I150000J0D01*
G01*
X141225000Y-96855000D01*
G75*
G02*
X141375000Y-97005000I0J-150000D01*
G01*
X141375000Y-97305000D01*
G75*
G02*
X141225000Y-97455000I-150000J0D01*
G01*
X139575000Y-97455000D01*
G75*
G02*
X139425000Y-97305000I0J150000D01*
G01*
G37*
G36*
G01*
X139425000Y-96035000D02*
X139425000Y-95735000D01*
G75*
G02*
X139575000Y-95585000I150000J0D01*
G01*
X141225000Y-95585000D01*
G75*
G02*
X141375000Y-95735000I0J-150000D01*
G01*
X141375000Y-96035000D01*
G75*
G02*
X141225000Y-96185000I-150000J0D01*
G01*
X139575000Y-96185000D01*
G75*
G02*
X139425000Y-96035000I0J150000D01*
G01*
G37*
G36*
G01*
X139425000Y-94765000D02*
X139425000Y-94465000D01*
G75*
G02*
X139575000Y-94315000I150000J0D01*
G01*
X141225000Y-94315000D01*
G75*
G02*
X141375000Y-94465000I0J-150000D01*
G01*
X141375000Y-94765000D01*
G75*
G02*
X141225000Y-94915000I-150000J0D01*
G01*
X139575000Y-94915000D01*
G75*
G02*
X139425000Y-94765000I0J150000D01*
G01*
G37*
G36*
G01*
X139425000Y-93495000D02*
X139425000Y-93195000D01*
G75*
G02*
X139575000Y-93045000I150000J0D01*
G01*
X141225000Y-93045000D01*
G75*
G02*
X141375000Y-93195000I0J-150000D01*
G01*
X141375000Y-93495000D01*
G75*
G02*
X141225000Y-93645000I-150000J0D01*
G01*
X139575000Y-93645000D01*
G75*
G02*
X139425000Y-93495000I0J150000D01*
G01*
G37*
G36*
G01*
X139425000Y-92225000D02*
X139425000Y-91925000D01*
G75*
G02*
X139575000Y-91775000I150000J0D01*
G01*
X141225000Y-91775000D01*
G75*
G02*
X141375000Y-91925000I0J-150000D01*
G01*
X141375000Y-92225000D01*
G75*
G02*
X141225000Y-92375000I-150000J0D01*
G01*
X139575000Y-92375000D01*
G75*
G02*
X139425000Y-92225000I0J150000D01*
G01*
G37*
%TD*%
%TO.C,R32*%
G36*
G01*
X115835000Y-50790002D02*
X115835000Y-49539998D01*
G75*
G02*
X116084998Y-49290000I249998J0D01*
G01*
X116710002Y-49290000D01*
G75*
G02*
X116960000Y-49539998I0J-249998D01*
G01*
X116960000Y-50790002D01*
G75*
G02*
X116710002Y-51040000I-249998J0D01*
G01*
X116084998Y-51040000D01*
G75*
G02*
X115835000Y-50790002I0J249998D01*
G01*
G37*
G36*
G01*
X112910000Y-50790002D02*
X112910000Y-49539998D01*
G75*
G02*
X113159998Y-49290000I249998J0D01*
G01*
X113785002Y-49290000D01*
G75*
G02*
X114035000Y-49539998I0J-249998D01*
G01*
X114035000Y-50790002D01*
G75*
G02*
X113785002Y-51040000I-249998J0D01*
G01*
X113159998Y-51040000D01*
G75*
G02*
X112910000Y-50790002I0J249998D01*
G01*
G37*
%TD*%
%TO.C,D4*%
G36*
G01*
X128775000Y-29625000D02*
X128775000Y-28375000D01*
G75*
G02*
X129025000Y-28125000I250000J0D01*
G01*
X129775000Y-28125000D01*
G75*
G02*
X130025000Y-28375000I0J-250000D01*
G01*
X130025000Y-29625000D01*
G75*
G02*
X129775000Y-29875000I-250000J0D01*
G01*
X129025000Y-29875000D01*
G75*
G02*
X128775000Y-29625000I0J250000D01*
G01*
G37*
G36*
G01*
X125975000Y-29625000D02*
X125975000Y-28375000D01*
G75*
G02*
X126225000Y-28125000I250000J0D01*
G01*
X126975000Y-28125000D01*
G75*
G02*
X127225000Y-28375000I0J-250000D01*
G01*
X127225000Y-29625000D01*
G75*
G02*
X126975000Y-29875000I-250000J0D01*
G01*
X126225000Y-29875000D01*
G75*
G02*
X125975000Y-29625000I0J250000D01*
G01*
G37*
%TD*%
%TO.C,D1*%
G36*
G01*
X123225000Y-28375000D02*
X123225000Y-29625000D01*
G75*
G02*
X122975000Y-29875000I-250000J0D01*
G01*
X122225000Y-29875000D01*
G75*
G02*
X121975000Y-29625000I0J250000D01*
G01*
X121975000Y-28375000D01*
G75*
G02*
X122225000Y-28125000I250000J0D01*
G01*
X122975000Y-28125000D01*
G75*
G02*
X123225000Y-28375000I0J-250000D01*
G01*
G37*
G36*
G01*
X126025000Y-28375000D02*
X126025000Y-29625000D01*
G75*
G02*
X125775000Y-29875000I-250000J0D01*
G01*
X125025000Y-29875000D01*
G75*
G02*
X124775000Y-29625000I0J250000D01*
G01*
X124775000Y-28375000D01*
G75*
G02*
X125025000Y-28125000I250000J0D01*
G01*
X125775000Y-28125000D01*
G75*
G02*
X126025000Y-28375000I0J-250000D01*
G01*
G37*
%TD*%
%TO.C,D5*%
G36*
G01*
X128775000Y-32625000D02*
X128775000Y-31375000D01*
G75*
G02*
X129025000Y-31125000I250000J0D01*
G01*
X129775000Y-31125000D01*
G75*
G02*
X130025000Y-31375000I0J-250000D01*
G01*
X130025000Y-32625000D01*
G75*
G02*
X129775000Y-32875000I-250000J0D01*
G01*
X129025000Y-32875000D01*
G75*
G02*
X128775000Y-32625000I0J250000D01*
G01*
G37*
G36*
G01*
X125975000Y-32625000D02*
X125975000Y-31375000D01*
G75*
G02*
X126225000Y-31125000I250000J0D01*
G01*
X126975000Y-31125000D01*
G75*
G02*
X127225000Y-31375000I0J-250000D01*
G01*
X127225000Y-32625000D01*
G75*
G02*
X126975000Y-32875000I-250000J0D01*
G01*
X126225000Y-32875000D01*
G75*
G02*
X125975000Y-32625000I0J250000D01*
G01*
G37*
%TD*%
%TO.C,D2*%
G36*
G01*
X123225000Y-31375000D02*
X123225000Y-32625000D01*
G75*
G02*
X122975000Y-32875000I-250000J0D01*
G01*
X122225000Y-32875000D01*
G75*
G02*
X121975000Y-32625000I0J250000D01*
G01*
X121975000Y-31375000D01*
G75*
G02*
X122225000Y-31125000I250000J0D01*
G01*
X122975000Y-31125000D01*
G75*
G02*
X123225000Y-31375000I0J-250000D01*
G01*
G37*
G36*
G01*
X126025000Y-31375000D02*
X126025000Y-32625000D01*
G75*
G02*
X125775000Y-32875000I-250000J0D01*
G01*
X125025000Y-32875000D01*
G75*
G02*
X124775000Y-32625000I0J250000D01*
G01*
X124775000Y-31375000D01*
G75*
G02*
X125025000Y-31125000I250000J0D01*
G01*
X125775000Y-31125000D01*
G75*
G02*
X126025000Y-31375000I0J-250000D01*
G01*
G37*
%TD*%
%TO.C,D6*%
G36*
G01*
X128775000Y-35625000D02*
X128775000Y-34375000D01*
G75*
G02*
X129025000Y-34125000I250000J0D01*
G01*
X129775000Y-34125000D01*
G75*
G02*
X130025000Y-34375000I0J-250000D01*
G01*
X130025000Y-35625000D01*
G75*
G02*
X129775000Y-35875000I-250000J0D01*
G01*
X129025000Y-35875000D01*
G75*
G02*
X128775000Y-35625000I0J250000D01*
G01*
G37*
G36*
G01*
X125975000Y-35625000D02*
X125975000Y-34375000D01*
G75*
G02*
X126225000Y-34125000I250000J0D01*
G01*
X126975000Y-34125000D01*
G75*
G02*
X127225000Y-34375000I0J-250000D01*
G01*
X127225000Y-35625000D01*
G75*
G02*
X126975000Y-35875000I-250000J0D01*
G01*
X126225000Y-35875000D01*
G75*
G02*
X125975000Y-35625000I0J250000D01*
G01*
G37*
%TD*%
%TO.C,D3*%
G36*
G01*
X123225000Y-34375000D02*
X123225000Y-35625000D01*
G75*
G02*
X122975000Y-35875000I-250000J0D01*
G01*
X122225000Y-35875000D01*
G75*
G02*
X121975000Y-35625000I0J250000D01*
G01*
X121975000Y-34375000D01*
G75*
G02*
X122225000Y-34125000I250000J0D01*
G01*
X122975000Y-34125000D01*
G75*
G02*
X123225000Y-34375000I0J-250000D01*
G01*
G37*
G36*
G01*
X126025000Y-34375000D02*
X126025000Y-35625000D01*
G75*
G02*
X125775000Y-35875000I-250000J0D01*
G01*
X125025000Y-35875000D01*
G75*
G02*
X124775000Y-35625000I0J250000D01*
G01*
X124775000Y-34375000D01*
G75*
G02*
X125025000Y-34125000I250000J0D01*
G01*
X125775000Y-34125000D01*
G75*
G02*
X126025000Y-34375000I0J-250000D01*
G01*
G37*
%TD*%
M02*
